<font>
  <info face="Arial" size="44" bold="0" italic="0" charset="" unicode="" stretchH="100" smooth="1" aa="1" padding="2,2,2,2" spacing="0,0" outline="0"/>
  <common lineHeight="51" base="40" scaleW="512" scaleH="512" pages="1" packed="0"/>
  <pages>
    <page id="0" file="font.png"/>
  </pages>
  <chars count="91">
    <char id="48" x="12" y="6" width="21" height="33" xoffset="2" yoffset="3" xadvance="24" page="0" chnl="15"/>
    <char id="49" x="61" y="7" width="12" height="32" xoffset="5" yoffset="3" xadvance="24" page="0" chnl="15"/>
    <char id="50" x="100" y="7" width="21" height="32" xoffset="1" yoffset="3" xadvance="24" page="0" chnl="15"/>
    <char id="51" x="144" y="6" width="21" height="33" xoffset="2" yoffset="3" xadvance="24" page="0" chnl="15"/>
    <char id="52" x="188" y="7" width="22" height="32" xoffset="1" yoffset="3" xadvance="24" page="0" chnl="15"/>
    <char id="53" x="232" y="7" width="21" height="32" xoffset="2" yoffset="3" xadvance="24" page="0" chnl="15"/>
    <char id="54" x="276" y="6" width="21" height="33" xoffset="2" yoffset="3" xadvance="24" page="0" chnl="15"/>
    <char id="55" x="320" y="7" width="21" height="31" xoffset="2" yoffset="3" xadvance="24" page="0" chnl="15"/>
    <char id="56" x="364" y="6" width="21" height="33" xoffset="2" yoffset="3" xadvance="24" page="0" chnl="15"/>
    <char id="57" x="408" y="6" width="21" height="33" xoffset="2" yoffset="3" xadvance="24" page="0" chnl="15"/>
    <char id="33" x="460" y="7" width="5" height="32" xoffset="4" yoffset="3" xadvance="12" page="0" chnl="15"/>
    <char id="8470" x="2" y="51" width="42" height="32" xoffset="3" yoffset="3" xadvance="47" page="0" chnl="15"/>
    <char id="59" x="64" y="52" width="5" height="29" xoffset="4" yoffset="12" xadvance="12" page="0" chnl="15"/>
    <char id="37" x="94" y="50" width="34" height="34" xoffset="3" yoffset="2" xadvance="39" page="0" chnl="15"/>
    <char id="58" x="152" y="55" width="5" height="23" xoffset="4" yoffset="12" xadvance="12" page="0" chnl="15"/>
    <char id="63" x="188" y="51" width="21" height="32" xoffset="2" yoffset="2" xadvance="24" page="0" chnl="15"/>
    <char id="42" x="235" y="60" width="15" height="14" xoffset="1" yoffset="2" xadvance="17" page="0" chnl="15"/>
    <char id="40" x="281" y="46" width="11" height="42" xoffset="3" yoffset="2" xadvance="15" page="0" chnl="15"/>
    <char id="41" x="325" y="46" width="11" height="42" xoffset="3" yoffset="2" xadvance="15" page="0" chnl="15"/>
    <char id="95" x="362" y="65" width="26" height="3" xoffset="-1" yoffset="40" xadvance="24" page="0" chnl="15"/>
    <char id="43" x="408" y="56" width="21" height="21" xoffset="2" yoffset="8" xadvance="26" page="0" chnl="15"/>
    <char id="45" x="457" y="65" width="12" height="4" xoffset="1" yoffset="21" xadvance="15" page="0" chnl="15"/>
    <char id="61" x="12" y="104" width="21" height="14" xoffset="2" yoffset="12" xadvance="26" page="0" chnl="15"/>
    <char id="46" x="64" y="108" width="5" height="5" xoffset="4" yoffset="30" xadvance="12" page="0" chnl="15"/>
    <char id="44" x="108" y="105" width="5" height="11" xoffset="4" yoffset="30" xadvance="12" page="0" chnl="15"/>
    <char id="47" x="148" y="94" width="13" height="33" xoffset="0" yoffset="2" xadvance="12" page="0" chnl="15"/>
    <char id="124" x="197" y="90" width="4" height="42" xoffset="4" yoffset="2" xadvance="11" page="0" chnl="15"/>
    <char id="92" x="236" y="94" width="13" height="33" xoffset="0" yoffset="2" xadvance="12" page="0" chnl="15"/>
    <char id="34" x="281" y="105" width="12" height="12" xoffset="2" yoffset="3" xadvance="16" page="0" chnl="15"/>
    <char id="39" x="328" y="105" width="5" height="12" xoffset="2" yoffset="3" xadvance="8" page="0" chnl="15"/>
    <char id="64" x="354" y="90" width="41" height="42" xoffset="2" yoffset="2" xadvance="45" page="0" chnl="15"/>
    <char id="35" x="407" y="94" width="24" height="33" xoffset="0" yoffset="2" xadvance="24" page="0" chnl="15"/>
    <char id="36" x="452" y="91" width="21" height="39" xoffset="2" yoffset="0" xadvance="24" page="0" chnl="15"/>
    <char id="94" x="13" y="146" width="19" height="18" xoffset="1" yoffset="2" xadvance="21" page="0" chnl="15"/>
    <char id="38" x="53" y="138" width="27" height="33" xoffset="2" yoffset="2" xadvance="29" page="0" chnl="15"/>
    <char id="123" x="104" y="134" width="13" height="42" xoffset="1" yoffset="2" xadvance="15" page="0" chnl="15"/>
    <char id="125" x="148" y="134" width="13" height="42" xoffset="1" yoffset="2" xadvance="15" page="0" chnl="15"/>
    <char id="91" x="194" y="134" width="9" height="41" xoffset="3" yoffset="3" xadvance="12" page="0" chnl="15"/>
    <char id="93" x="238" y="134" width="9" height="41" xoffset="1" yoffset="3" xadvance="12" page="0" chnl="15"/>
    <char id="65" x="272" y="139" width="30" height="32" xoffset="0" yoffset="3" xadvance="29" page="0" chnl="15"/>
    <char id="66" x="319" y="139" width="24" height="32" xoffset="3" yoffset="3" xadvance="29" page="0" chnl="15"/>
    <char id="67" x="361" y="138" width="28" height="33" xoffset="2" yoffset="2" xadvance="32" page="0" chnl="15"/>
    <char id="68" x="406" y="139" width="26" height="32" xoffset="3" yoffset="3" xadvance="32" page="0" chnl="15"/>
    <char id="69" x="451" y="139" width="24" height="32" xoffset="3" yoffset="3" xadvance="29" page="0" chnl="15"/>
    <char id="70" x="12" y="183" width="22" height="32" xoffset="4" yoffset="3" xadvance="27" page="0" chnl="15"/>
    <char id="71" x="52" y="182" width="29" height="33" xoffset="2" yoffset="2" xadvance="34" page="0" chnl="15"/>
    <char id="72" x="98" y="183" width="25" height="32" xoffset="4" yoffset="3" xadvance="32" page="0" chnl="15"/>
    <char id="73" x="152" y="183" width="5" height="32" xoffset="4" yoffset="3" xadvance="12" page="0" chnl="15"/>
    <char id="74" x="190" y="183" width="18" height="32" xoffset="1" yoffset="3" xadvance="22" page="0" chnl="15"/>
    <char id="75" x="230" y="183" width="26" height="32" xoffset="3" yoffset="3" xadvance="29" page="0" chnl="15"/>
    <char id="76" x="277" y="183" width="20" height="32" xoffset="3" yoffset="3" xadvance="24" page="0" chnl="15"/>
    <char id="77" x="316" y="183" width="30" height="32" xoffset="3" yoffset="3" xadvance="37" page="0" chnl="15"/>
    <char id="78" x="362" y="183" width="25" height="32" xoffset="3" yoffset="3" xadvance="32" page="0" chnl="15"/>
    <char id="79" x="404" y="182" width="30" height="33" xoffset="2" yoffset="2" xadvance="34" page="0" chnl="15"/>
    <char id="80" x="451" y="183" width="24" height="32" xoffset="3" yoffset="3" xadvance="29" page="0" chnl="15"/>
    <char id="81" x="7" y="225" width="31" height="35" xoffset="2" yoffset="2" xadvance="34" page="0" chnl="15"/>
    <char id="82" x="53" y="227" width="28" height="32" xoffset="3" yoffset="3" xadvance="32" page="0" chnl="15"/>
    <char id="83" x="98" y="226" width="25" height="33" xoffset="2" yoffset="2" xadvance="29" page="0" chnl="15"/>
    <char id="84" x="142" y="227" width="25" height="32" xoffset="1" yoffset="3" xadvance="27" page="0" chnl="15"/>
    <char id="85" x="186" y="227" width="25" height="32" xoffset="3" yoffset="3" xadvance="32" page="0" chnl="15"/>
    <char id="86" x="228" y="227" width="29" height="32" xoffset="0" yoffset="3" xadvance="29" page="0" chnl="15"/>
    <char id="87" x="266" y="227" width="41" height="32" xoffset="1" yoffset="3" xadvance="42" page="0" chnl="15"/>
    <char id="88" x="316" y="227" width="29" height="32" xoffset="0" yoffset="3" xadvance="29" page="0" chnl="15"/>
    <char id="89" x="360" y="227" width="29" height="32" xoffset="0" yoffset="3" xadvance="29" page="0" chnl="15"/>
    <char id="90" x="406" y="227" width="25" height="32" xoffset="1" yoffset="3" xadvance="27" page="0" chnl="15"/>
    <char id="97" x="452" y="231" width="21" height="24" xoffset="2" yoffset="11" xadvance="24" page="0" chnl="15"/>
    <char id="98" x="13" y="271" width="20" height="32" xoffset="3" yoffset="3" xadvance="24" page="0" chnl="15"/>
    <char id="99" x="57" y="275" width="20" height="24" xoffset="2" yoffset="11" xadvance="22" page="0" chnl="15"/>
    <char id="100" x="101" y="271" width="20" height="32" xoffset="2" yoffset="3" xadvance="24" page="0" chnl="15"/>
    <char id="101" x="144" y="275" width="21" height="24" xoffset="2" yoffset="11" xadvance="24" page="0" chnl="15"/>
    <char id="102" x="192" y="271" width="14" height="32" xoffset="0" yoffset="2" xadvance="12" page="0" chnl="15"/>
    <char id="103" x="233" y="270" width="20" height="33" xoffset="1" yoffset="11" xadvance="24" page="0" chnl="15"/>
    <char id="104" x="277" y="271" width="19" height="32" xoffset="3" yoffset="3" xadvance="24" page="0" chnl="15"/>
    <char id="105" x="329" y="271" width="4" height="32" xoffset="3" yoffset="3" xadvance="10" page="0" chnl="15"/>
    <char id="106" x="370" y="266" width="9" height="41" xoffset="-2" yoffset="3" xadvance="10" page="0" chnl="15"/>
    <char id="107" x="409" y="271" width="19" height="32" xoffset="3" yoffset="3" xadvance="22" page="0" chnl="15"/>
    <char id="108" x="461" y="271" width="4" height="32" xoffset="3" yoffset="3" xadvance="10" page="0" chnl="15"/>
    <char id="109" x="7" y="319" width="31" height="24" xoffset="3" yoffset="11" xadvance="37" page="0" chnl="15"/>
    <char id="110" x="57" y="319" width="19" height="24" xoffset="3" yoffset="11" xadvance="24" page="0" chnl="15"/>
    <char id="111" x="100" y="319" width="22" height="24" xoffset="1" yoffset="11" xadvance="24" page="0" chnl="15"/>
    <char id="112" x="145" y="315" width="20" height="32" xoffset="3" yoffset="11" xadvance="24" page="0" chnl="15"/>
    <char id="113" x="189" y="315" width="20" height="32" xoffset="2" yoffset="11" xadvance="24" page="0" chnl="15"/>
    <char id="114" x="236" y="319" width="13" height="24" xoffset="3" yoffset="11" xadvance="15" page="0" chnl="15"/>
    <char id="115" x="277" y="319" width="19" height="24" xoffset="1" yoffset="11" xadvance="22" page="0" chnl="15"/>
    <char id="116" x="325" y="315" width="11" height="31" xoffset="1" yoffset="4" xadvance="12" page="0" chnl="15"/>
    <char id="117" x="365" y="319" width="19" height="24" xoffset="3" yoffset="12" xadvance="24" page="0" chnl="15"/>
    <char id="118" x="408" y="319" width="21" height="23" xoffset="1" yoffset="12" xadvance="22" page="0" chnl="15"/>
    <char id="119" x="447" y="319" width="32" height="23" xoffset="0" yoffset="12" xadvance="32" page="0" chnl="15"/>
    <char id="120" x="12" y="363" width="22" height="23" xoffset="0" yoffset="12" xadvance="22" page="0" chnl="15"/>
    <char id="121" x="56" y="359" width="21" height="32" xoffset="1" yoffset="12" xadvance="22" page="0" chnl="15"/>
    <char id="122" x="100" y="363" width="21" height="23" xoffset="1" yoffset="12" xadvance="22" page="0" chnl="15"/>
    <char id="32" x="0" y="0" width="0" height="0" xoffset="1" yoffset="12" xadvance="12" page="0" chnl="15"/>
  </chars>
  <kernings count="97">
    <kerning first="32" second="65" amount="-2"/>
    <kerning first="32" second="84" amount="-1"/>
    <kerning first="32" second="89" amount="-1"/>
    <kerning first="49" second="49" amount="-3"/>
    <kerning first="65" second="32" amount="-2"/>
    <kerning first="65" second="84" amount="-3"/>
    <kerning first="65" second="86" amount="-3"/>
    <kerning first="65" second="87" amount="-2"/>
    <kerning first="65" second="89" amount="-3"/>
    <kerning first="65" second="118" amount="-1"/>
    <kerning first="65" second="119" amount="-1"/>
    <kerning first="65" second="121" amount="-1"/>
    <kerning first="70" second="44" amount="-5"/>
    <kerning first="70" second="46" amount="-5"/>
    <kerning first="70" second="65" amount="-2"/>
    <kerning first="76" second="32" amount="-2"/>
    <kerning first="76" second="84" amount="-3"/>
    <kerning first="76" second="86" amount="-3"/>
    <kerning first="76" second="87" amount="-3"/>
    <kerning first="76" second="89" amount="-3"/>
    <kerning first="76" second="121" amount="-2"/>
    <kerning first="80" second="32" amount="-1"/>
    <kerning first="80" second="44" amount="-6"/>
    <kerning first="80" second="46" amount="-6"/>
    <kerning first="80" second="65" amount="-3"/>
    <kerning first="82" second="84" amount="-1"/>
    <kerning first="82" second="86" amount="-1"/>
    <kerning first="82" second="87" amount="-1"/>
    <kerning first="82" second="89" amount="-1"/>
    <kerning first="84" second="32" amount="-1"/>
    <kerning first="84" second="44" amount="-5"/>
    <kerning first="84" second="45" amount="-2"/>
    <kerning first="84" second="46" amount="-5"/>
    <kerning first="84" second="58" amount="-5"/>
    <kerning first="84" second="59" amount="-5"/>
    <kerning first="84" second="65" amount="-3"/>
    <kerning first="84" second="79" amount="-1"/>
    <kerning first="84" second="97" amount="-5"/>
    <kerning first="84" second="99" amount="-5"/>
    <kerning first="84" second="101" amount="-5"/>
    <kerning first="84" second="105" amount="-2"/>
    <kerning first="84" second="111" amount="-5"/>
    <kerning first="84" second="114" amount="-2"/>
    <kerning first="84" second="115" amount="-5"/>
    <kerning first="84" second="117" amount="-2"/>
    <kerning first="84" second="119" amount="-2"/>
    <kerning first="84" second="121" amount="-2"/>
    <kerning first="86" second="44" amount="-4"/>
    <kerning first="86" second="45" amount="-2"/>
    <kerning first="86" second="46" amount="-4"/>
    <kerning first="86" second="58" amount="-2"/>
    <kerning first="86" second="59" amount="-2"/>
    <kerning first="86" second="65" amount="-3"/>
    <kerning first="86" second="97" amount="-3"/>
    <kerning first="86" second="101" amount="-2"/>
    <kerning first="86" second="105" amount="-1"/>
    <kerning first="86" second="111" amount="-2"/>
    <kerning first="86" second="114" amount="-2"/>
    <kerning first="86" second="117" amount="-2"/>
    <kerning first="86" second="121" amount="-2"/>
    <kerning first="87" second="44" amount="-2"/>
    <kerning first="87" second="45" amount="-1"/>
    <kerning first="87" second="46" amount="-2"/>
    <kerning first="87" second="58" amount="-1"/>
    <kerning first="87" second="59" amount="-1"/>
    <kerning first="87" second="65" amount="-2"/>
    <kerning first="87" second="97" amount="-2"/>
    <kerning first="87" second="101" amount="-1"/>
    <kerning first="87" second="105" amount="0"/>
    <kerning first="87" second="111" amount="-1"/>
    <kerning first="87" second="114" amount="-1"/>
    <kerning first="87" second="117" amount="-1"/>
    <kerning first="87" second="121" amount="0"/>
    <kerning first="89" second="32" amount="-1"/>
    <kerning first="89" second="44" amount="-6"/>
    <kerning first="89" second="45" amount="-4"/>
    <kerning first="89" second="46" amount="-6"/>
    <kerning first="89" second="58" amount="-2"/>
    <kerning first="89" second="59" amount="-3"/>
    <kerning first="89" second="65" amount="-3"/>
    <kerning first="89" second="97" amount="-3"/>
    <kerning first="89" second="101" amount="-4"/>
    <kerning first="89" second="105" amount="-2"/>
    <kerning first="89" second="111" amount="-4"/>
    <kerning first="89" second="112" amount="-3"/>
    <kerning first="89" second="113" amount="-4"/>
    <kerning first="89" second="117" amount="-2"/>
    <kerning first="89" second="118" amount="-2"/>
    <kerning first="102" second="102" amount="-1"/>
    <kerning first="114" second="44" amount="-2"/>
    <kerning first="114" second="46" amount="-2"/>
    <kerning first="118" second="44" amount="-3"/>
    <kerning first="118" second="46" amount="-3"/>
    <kerning first="119" second="44" amount="-2"/>
    <kerning first="119" second="46" amount="-2"/>
    <kerning first="121" second="44" amount="-3"/>
    <kerning first="121" second="46" amount="-3"/>
  </kernings>
</font>