# Blender v2.69 (sub 0) OBJ File: ''
# www.blender.org
mtllib monkey.mtl
o Suzanne
v 0.435153 -0.790233 0.174171
v -0.411384 -0.790233 0.174171
v 0.495620 -0.714650 0.106146
v -0.471851 -0.714650 0.106146
v 0.540970 -0.608833 0.068354
v -0.517201 -0.608833 0.068354
v 0.352011 -0.646625 -0.007229
v -0.328242 -0.646625 -0.007229
v 0.352011 -0.744883 0.045679
v -0.328242 -0.744883 0.045679
v 0.352011 -0.805350 0.143938
v -0.328242 -0.805350 0.143938
v 0.276428 -0.820467 0.174171
v -0.252658 -0.820467 0.174171
v 0.208402 -0.767558 0.106146
v -0.184633 -0.767558 0.106146
v 0.163052 -0.676858 0.068354
v -0.139283 -0.676858 0.068354
v 0.087468 -0.684416 0.249755
v -0.063699 -0.684416 0.249755
v 0.147935 -0.767558 0.249755
v -0.124166 -0.767558 0.249755
v 0.246194 -0.820467 0.249755
v -0.222425 -0.820467 0.249755
v 0.276428 -0.820467 0.332897
v -0.252658 -0.820467 0.332897
v 0.208402 -0.767558 0.393364
v -0.184633 -0.767558 0.393364
v 0.163052 -0.676858 0.438714
v -0.139283 -0.676858 0.438714
v 0.352011 -0.646625 0.514298
v -0.328242 -0.646625 0.514298
v 0.352011 -0.744883 0.453831
v -0.328242 -0.744883 0.453831
v 0.352011 -0.805350 0.363130
v -0.328242 -0.805350 0.363130
v 0.435153 -0.790233 0.332897
v -0.411384 -0.790233 0.332897
v 0.495620 -0.714650 0.393364
v -0.471851 -0.714650 0.393364
v 0.540970 -0.608833 0.438714
v -0.517201 -0.608833 0.438714
v 0.616554 -0.593716 0.249755
v -0.592785 -0.593716 0.249755
v 0.556087 -0.699533 0.249755
v -0.532318 -0.699533 0.249755
v 0.465387 -0.782675 0.249755
v -0.441617 -0.782675 0.249755
v 0.472945 -0.797792 0.249755
v -0.449176 -0.797792 0.249755
v 0.442712 -0.805350 0.340455
v -0.418942 -0.805350 0.340455
v 0.352011 -0.828025 0.378247
v -0.328242 -0.828025 0.378247
v 0.268869 -0.843142 0.340455
v -0.245100 -0.843142 0.340455
v 0.231077 -0.843142 0.249755
v -0.207308 -0.843142 0.249755
v 0.268869 -0.843142 0.166613
v -0.245100 -0.843142 0.166613
v 0.352011 -0.850700 0.249755
v -0.328242 -0.850700 0.249755
v 0.352011 -0.828025 0.128821
v -0.328242 -0.828025 0.128821
v 0.442712 -0.805350 0.166613
v -0.418942 -0.805350 0.166613
v 0.011885 -0.767558 0.431156
v 0.011885 -0.843142 0.355572
v 0.011885 -0.760000 -0.642132
v 0.011885 -0.805350 -0.294447
v 0.011885 -0.820467 -0.165955
v 0.011885 -0.744883 -0.732833
v 0.011885 -0.631508 0.408481
v 0.011885 -0.601274 0.567206
v 0.011885 0.479572 0.884658
v 0.011885 0.774348 0.559648
v 0.011885 0.751673 0.083471
v 0.011885 0.290613 -0.354914
v 0.208402 -0.593716 -0.165955
v -0.184633 -0.593716 -0.165955
v 0.314219 -0.601274 -0.407823
v -0.290450 -0.601274 -0.407823
v 0.352011 -0.601274 -0.657249
v -0.328242 -0.601274 -0.657249
v 0.367128 -0.563482 -0.846208
v -0.343358 -0.563482 -0.846208
v 0.329336 -0.555924 -0.899117
v -0.305567 -0.555924 -0.899117
v 0.185727 -0.586158 -0.921792
v -0.161958 -0.586158 -0.921792
v 0.011885 -0.608833 -0.936909
v 0.435153 -0.563482 -0.120605
v -0.411384 -0.563482 -0.120605
v 0.624112 -0.571041 -0.022346
v -0.600343 -0.571041 -0.022346
v 0.813072 -0.480340 0.159055
v -0.789302 -0.480340 0.159055
v 0.843305 -0.623949 0.431156
v -0.819536 -0.623949 0.431156
v 0.699696 -0.654183 0.484064
v -0.675927 -0.654183 0.484064
v 0.488062 -0.714650 0.597440
v -0.464292 -0.714650 0.597440
v 0.321778 -0.760000 0.748607
v -0.298008 -0.760000 0.748607
v 0.163052 -0.782675 0.710815
v -0.139283 -0.782675 0.710815
v 0.072352 -0.775117 0.491623
v -0.048582 -0.775117 0.491623
v 0.170610 -0.797792 0.416039
v -0.146841 -0.797792 0.416039
v 0.132819 -0.790233 0.310222
v -0.109049 -0.790233 0.310222
v 0.208402 -0.767558 0.106146
v -0.184633 -0.767558 0.106146
v 0.374686 -0.729766 0.030562
v -0.350917 -0.729766 0.030562
v 0.488062 -0.699533 0.075913
v -0.464292 -0.699533 0.075913
v 0.616554 -0.676858 0.196846
v -0.592785 -0.676858 0.196846
v 0.631671 -0.676858 0.302664
v -0.607901 -0.676858 0.302664
v 0.593879 -0.691975 0.378247
v -0.570109 -0.691975 0.378247
v 0.427595 -0.744883 0.438714
v -0.403825 -0.744883 0.438714
v 0.253752 -0.782675 0.468948
v -0.229983 -0.782675 0.468948
v 0.011885 -0.760000 -0.725274
v 0.117702 -0.760000 -0.679924
v -0.093932 -0.760000 -0.679924
v 0.125260 -0.737325 -0.793300
v -0.101491 -0.737325 -0.793300
v 0.072352 -0.722208 -0.838650
v -0.048582 -0.722208 -0.838650
v 0.011885 -0.714650 -0.846208
v 0.011885 -0.775117 -0.173514
v 0.011885 -0.767558 -0.120605
v 0.110144 -0.767558 -0.128163
v -0.086374 -0.767558 -0.128163
v 0.132819 -0.775117 -0.203747
v -0.109049 -0.775117 -0.203747
v 0.095027 -0.767558 -0.264214
v -0.071257 -0.767558 -0.264214
v 0.397362 -0.699533 -0.029905
v -0.373592 -0.699533 -0.029905
v 0.608996 -0.654183 0.068354
v -0.585226 -0.654183 0.068354
v 0.714813 -0.631508 0.211963
v -0.691043 -0.631508 0.211963
v 0.729930 -0.684416 0.378247
v -0.706160 -0.684416 0.378247
v 0.677021 -0.752442 0.416039
v -0.653252 -0.752442 0.416039
v 0.435153 -0.820467 0.544531
v -0.411384 -0.820467 0.544531
v 0.314219 -0.858259 0.635232
v -0.290450 -0.858259 0.635232
v 0.208402 -0.873376 0.612557
v -0.184633 -0.873376 0.612557
v 0.110144 -0.865817 0.431156
v -0.086374 -0.865817 0.431156
v 0.132819 -0.835584 -0.082813
v -0.109049 -0.835584 -0.082813
v 0.215961 -0.737325 -0.415381
v -0.192191 -0.737325 -0.415381
v 0.253752 -0.714650 -0.664807
v -0.229983 -0.714650 -0.664807
v 0.268869 -0.691975 -0.778183
v -0.245100 -0.691975 -0.778183
v 0.238636 -0.661741 -0.868883
v -0.214866 -0.661741 -0.868883
v 0.170610 -0.661741 -0.884000
v -0.146841 -0.661741 -0.884000
v 0.011885 -0.669300 -0.899117
v 0.011885 -0.752442 0.060796
v 0.011885 -0.790233 0.219522
v 0.329336 -0.767558 0.476506
v -0.305567 -0.767558 0.476506
v 0.170610 -0.775117 0.151496
v -0.146841 -0.775117 0.151496
v 0.140377 -0.782675 0.219522
v -0.116607 -0.782675 0.219522
v 0.125260 -0.760000 -0.649691
v -0.101491 -0.760000 -0.649691
v 0.087468 -0.775117 -0.415381
v -0.063699 -0.775117 -0.415381
v 0.011885 -0.775117 -0.415381
v 0.011885 -0.767558 -0.302006
v 0.102585 -0.805350 -0.249097
v -0.078816 -0.805350 -0.249097
v 0.140377 -0.820467 -0.203747
v -0.116607 -0.820467 -0.203747
v 0.117702 -0.805350 -0.113047
v -0.093932 -0.805350 -0.113047
v 0.049677 -0.805350 -0.105488
v -0.025907 -0.805350 -0.105488
v 0.011885 -0.850700 -0.181072
v 0.057235 -0.835584 -0.128163
v -0.033465 -0.835584 -0.128163
v 0.102585 -0.835584 -0.135722
v -0.078816 -0.835584 -0.135722
v 0.117702 -0.850700 -0.203747
v -0.093932 -0.850700 -0.203747
v 0.087468 -0.828025 -0.226422
v -0.063699 -0.828025 -0.226422
v 0.011885 -0.828025 -0.264214
v 0.261311 -0.586158 -0.286889
v -0.237541 -0.586158 -0.286889
v 0.170610 -0.737325 -0.218864
v -0.146841 -0.737325 -0.218864
v 0.185727 -0.737325 -0.286889
v -0.161958 -0.737325 -0.286889
v 0.238636 -0.586158 -0.226422
v -0.214866 -0.586158 -0.226422
v 0.011885 -0.714650 -0.831091
v 0.057235 -0.714650 -0.823533
v -0.033465 -0.714650 -0.823533
v 0.102585 -0.737325 -0.778183
v -0.078816 -0.737325 -0.778183
v 0.102585 -0.752442 -0.702599
v -0.078816 -0.752442 -0.702599
v 0.011885 -0.684416 -0.740391
v 0.102585 -0.691975 -0.710158
v -0.078816 -0.691975 -0.710158
v 0.102585 -0.669300 -0.770625
v -0.078816 -0.669300 -0.770625
v 0.057235 -0.661741 -0.808416
v -0.033465 -0.661741 -0.808416
v 0.011885 -0.661741 -0.815975
v 0.178169 -0.805350 0.227080
v -0.154399 -0.805350 0.227080
v 0.193286 -0.797792 0.166613
v -0.169516 -0.797792 0.166613
v 0.336895 -0.782675 0.431156
v -0.313125 -0.782675 0.431156
v 0.276428 -0.797792 0.423597
v -0.252658 -0.797792 0.423597
v 0.420037 -0.797792 0.400922
v -0.396267 -0.797792 0.400922
v 0.556087 -0.722208 0.355572
v -0.532318 -0.722208 0.355572
v 0.578762 -0.714650 0.295105
v -0.554993 -0.714650 0.295105
v 0.571204 -0.707091 0.204405
v -0.547434 -0.707091 0.204405
v 0.472945 -0.744883 0.113704
v -0.449176 -0.744883 0.113704
v 0.374686 -0.767558 0.075913
v -0.350917 -0.767558 0.075913
v 0.231077 -0.805350 0.121263
v -0.207308 -0.805350 0.121263
v 0.185727 -0.805350 0.302664
v -0.161958 -0.805350 0.302664
v 0.215961 -0.805350 0.378247
v -0.192191 -0.805350 0.378247
v 0.238636 -0.782675 0.363130
v -0.214866 -0.782675 0.363130
v 0.200844 -0.782675 0.302664
v -0.177074 -0.782675 0.302664
v 0.246194 -0.782675 0.136379
v -0.222425 -0.782675 0.136379
v 0.374686 -0.752442 0.098588
v -0.350917 -0.752442 0.098588
v 0.457828 -0.729766 0.128821
v -0.434059 -0.729766 0.128821
v 0.540970 -0.699533 0.219522
v -0.517201 -0.699533 0.219522
v 0.548529 -0.699533 0.287547
v -0.524759 -0.699533 0.287547
v 0.525854 -0.707091 0.340455
v -0.502084 -0.707091 0.340455
v 0.412478 -0.775117 0.393364
v -0.388709 -0.775117 0.393364
v 0.283986 -0.790233 0.400922
v -0.260216 -0.790233 0.400922
v 0.336895 -0.775117 0.408481
v -0.313125 -0.775117 0.408481
v 0.208402 -0.775117 0.181730
v -0.184633 -0.775117 0.181730
v 0.200844 -0.775117 0.234638
v -0.177074 -0.775117 0.234638
v 0.117702 -0.639066 0.461389
v -0.093932 -0.639066 0.461389
v 0.200844 -0.646625 0.657907
v -0.177074 -0.646625 0.657907
v 0.336895 -0.623949 0.680582
v -0.313125 -0.623949 0.680582
v 0.480504 -0.586158 0.552090
v -0.456734 -0.586158 0.552090
v 0.669463 -0.525691 0.453831
v -0.645693 -0.525691 0.453831
v 0.782838 -0.495457 0.408481
v -0.759069 -0.495457 0.408481
v 0.760163 -0.412315 0.174171
v -0.736394 -0.412315 0.174171
v 0.593879 -0.450107 0.015446
v -0.570109 -0.450107 0.015446
v 0.435153 -0.503016 -0.075255
v -0.411384 -0.503016 -0.075255
v 0.011885 -0.329173 0.884658
v 0.011885 0.026070 0.967800
v 0.011885 0.600506 -0.173514
v 0.011885 -0.230914 -0.430498
v 0.011885 -0.495457 -0.929350
v 0.011885 -0.382082 -0.763066
v 0.011885 -0.359407 -0.536315
v 0.011885 -0.321615 -0.453173
v 0.835747 -0.102422 0.242197
v -0.811977 -0.102422 0.242197
v 0.843305 -0.004163 0.325339
v -0.819536 -0.004163 0.325339
v 0.760163 0.373755 0.272430
v -0.736394 0.373755 0.272430
v 0.457828 0.630740 0.438714
v -0.434059 0.630740 0.438714
v 0.722371 -0.117539 -0.029905
v -0.698602 -0.117539 -0.029905
v 0.586321 0.109212 -0.105488
v -0.562551 0.109212 -0.105488
v 0.631671 0.366197 0.007887
v -0.607901 0.366197 0.007887
v 0.336895 0.592948 0.068354
v -0.313125 0.592948 0.068354
v 0.238636 -0.442549 -0.324681
v -0.214866 -0.442549 -0.324681
v 0.185727 -0.298940 -0.385148
v -0.161958 -0.298940 -0.385148
v 0.291544 -0.419873 -0.672366
v -0.267775 -0.419873 -0.672366
v 0.253752 -0.427432 -0.468290
v -0.229983 -0.427432 -0.468290
v 0.329336 -0.434990 -0.868883
v -0.305567 -0.434990 -0.868883
v 0.147935 -0.404757 -0.717716
v -0.124166 -0.404757 -0.717716
v 0.132819 -0.397198 -0.506082
v -0.109049 -0.397198 -0.506082
v 0.170610 -0.472782 -0.899117
v -0.146841 -0.472782 -0.899117
v 0.223519 -0.465224 -0.256656
v -0.199750 -0.465224 -0.256656
v 0.215961 -0.503016 -0.203747
v -0.192191 -0.503016 -0.203747
v 0.208402 -0.533249 -0.150838
v -0.184633 -0.533249 -0.150838
v 0.215961 -0.208239 -0.362473
v -0.192191 -0.208239 -0.362473
v 0.299103 0.207471 -0.286889
v -0.275333 0.207471 -0.286889
v 0.344453 0.472014 -0.128163
v -0.320683 0.472014 -0.128163
v 0.450270 0.320846 0.854424
v -0.426500 0.320846 0.854424
v 0.450270 0.018512 0.914891
v -0.426500 0.018512 0.914891
v 0.450270 -0.276265 0.839308
v -0.426500 -0.276265 0.839308
v 0.457828 -0.465224 0.521856
v -0.434059 -0.465224 0.521856
v 0.714813 -0.374523 0.408481
v -0.691043 -0.374523 0.408481
v 0.624112 -0.321615 0.453831
v -0.600343 -0.321615 0.453831
v 0.631671 -0.102422 0.695699
v -0.607901 -0.102422 0.695699
v 0.782838 -0.170447 0.559648
v -0.759069 -0.170447 0.559648
v 0.782838 0.063862 0.612557
v -0.759069 0.063862 0.612557
v 0.631671 0.139446 0.741049
v -0.607901 0.139446 0.741049
v 0.631671 0.381313 0.673024
v -0.607901 0.381313 0.673024
v 0.782838 0.298171 0.536973
v -0.759069 0.298171 0.536973
v 0.608996 0.517364 0.332897
v -0.585226 0.517364 0.332897
v 0.480504 0.479572 0.038121
v -0.456734 0.479572 0.038121
v 0.805513 0.147004 0.332897
v -0.781744 0.147004 0.332897
v 0.404920 -0.193122 -0.150838
v -0.381150 -0.193122 -0.150838
v 0.427595 0.154562 -0.173514
v -0.403825 0.154562 -0.173514
v 0.873539 0.177237 0.408481
v -0.849769 0.177237 0.408481
v 0.760163 0.071420 -0.120605
v -0.736394 0.071420 -0.120605
v 1.017148 0.267938 -0.082813
v -0.993378 0.267938 -0.082813
v 1.251457 0.366197 0.068354
v -1.227687 0.366197 0.068354
v 1.319482 0.358638 0.325339
v -1.295713 0.358638 0.325339
v 1.206107 0.358638 0.506739
v -1.182337 0.358638 0.506739
v 1.002031 0.252821 0.476506
v -0.978261 0.252821 0.476506
v 0.994472 0.230146 0.416039
v -0.970703 0.230146 0.416039
v 1.160757 0.328405 0.438714
v -1.136987 0.328405 0.438714
v 1.236340 0.343522 0.295105
v -1.212571 0.343522 0.295105
v 1.183432 0.343522 0.091029
v -1.159662 0.343522 0.091029
v 1.009589 0.245263 -0.022346
v -0.985820 0.245263 -0.022346
v 0.813072 0.078979 -0.052580
v -0.789302 0.078979 -0.052580
v 0.903772 0.162121 0.363131
v -0.880003 0.162121 0.363131
v 0.926447 0.230146 0.310222
v -0.902678 0.230146 0.310222
v 0.865980 0.154562 -0.007229
v -0.842211 0.154562 -0.007229
v 1.017148 0.305730 0.015446
v -0.993378 0.305730 0.015446
v 1.160757 0.381313 0.106146
v -1.136987 0.381313 0.106146
v 1.206107 0.381313 0.257313
v -1.182337 0.381313 0.257313
v 1.145640 0.373755 0.363131
v -1.121870 0.373755 0.363131
v 1.002031 0.298171 0.348014
v -0.978261 0.298171 0.348014
v 0.828188 0.154562 0.295105
v -0.804419 0.154562 0.295105
v 0.820630 0.215029 0.181730
v -0.796861 0.215029 0.181730
v 0.745046 0.215029 0.106146
v -0.721277 0.215029 0.106146
v 0.805513 0.215029 0.098588
v -0.781744 0.215029 0.098588
v 0.828188 0.215029 0.030562
v -0.804419 0.215029 0.030562
v 0.797955 0.215029 0.000329
v -0.774185 0.215029 0.000329
v 0.714813 0.018512 0.015446
v -0.691043 0.018512 0.015446
v 0.707255 0.116771 -0.007229
v -0.683485 0.116771 -0.007229
v 0.707255 0.131887 0.053237
v -0.683485 0.131887 0.053237
v 0.782838 0.154562 0.211963
v -0.759069 0.154562 0.211963
v 0.873539 0.207471 0.249755
v -0.849769 0.207471 0.249755
v 0.873539 0.260379 0.242197
v -0.849769 0.260379 0.242197
v 0.797955 0.260379 0.000329
v -0.774185 0.260379 0.000329
v 0.835747 0.260379 0.030562
v -0.811977 0.260379 0.030562
v 0.813072 0.260379 0.091029
v -0.789302 0.260379 0.091029
v 0.752605 0.260379 0.106146
v -0.728835 0.260379 0.106146
v 0.828188 0.260379 0.181730
v -0.804419 0.260379 0.181730
v 1.017148 0.351080 0.332897
v -0.993378 0.351080 0.332897
v 1.160757 0.419105 0.348014
v -1.136987 0.419105 0.348014
v 1.228782 0.426664 0.249755
v -1.205012 0.426664 0.249755
v 1.183432 0.419105 0.098588
v -1.159662 0.419105 0.098588
v 1.024706 0.358638 0.015446
v -1.000936 0.358638 0.015446
v 0.865980 0.207471 0.000329
v -0.842211 0.207471 0.000329
v 0.934005 0.283055 0.295105
v -0.910236 0.283055 0.295105
v 0.873539 0.267938 0.121263
v -0.849769 0.267938 0.121263
v 0.918889 0.275496 0.075913
v -0.895119 0.275496 0.075913
v 0.979356 0.305730 0.136380
v -0.955586 0.305730 0.136380
v 0.941564 0.290613 0.181730
v -0.917794 0.290613 0.181730
v 0.994472 0.313288 0.242197
v -0.970703 0.313288 0.242197
v 1.032264 0.320846 0.196846
v -1.008495 0.320846 0.196846
v 1.085173 0.328405 0.219522
v -1.061403 0.328405 0.219522
v 1.062498 0.328405 0.279988
v -1.038728 0.328405 0.279988
v 1.002031 0.419105 0.438714
v -0.978261 0.419105 0.438714
v 1.221223 0.479572 0.468948
v -1.197454 0.479572 0.468948
v 1.334599 0.434222 0.302664
v -1.310829 0.434222 0.302664
v 1.281690 0.464455 0.068354
v -1.257921 0.464455 0.068354
v 1.017148 0.426664 -0.067696
v -0.993378 0.426664 -0.067696
v 0.775280 0.267938 -0.105488
v -0.751510 0.267938 -0.105488
v 0.843305 0.320846 0.385806
v -0.819536 0.320846 0.385806
vt 0.694902 0.617442
vt 0.682304 0.585949
vt 0.732693 0.617442
vt 0.304386 0.557605
vt 0.329580 0.585949
vt 0.279191 0.617442
vt 0.617442 0.802294
vt 0.557605 0.808593
vt 0.617442 0.758204
vt 0.541858 0.764502
vt 0.707499 0.808593
vt 0.647662 0.821190
vt 0.726395 0.764502
vt 0.364223 0.780249
vt 0.364223 0.821190
vt 0.285490 0.764502
vt 0.647662 0.573351
vt 0.707499 0.557605
vt 0.364223 0.532410
vt 0.364223 0.573351
vt 0.616169 0.585949
vt 0.647662 0.532410
vt 0.424060 0.557605
vt 0.395716 0.585949
vt 0.587825 0.830638
vt 0.647662 0.780249
vt 0.442956 0.792846
vt 0.424060 0.830638
vt 0.557605 0.830638
vt 0.617442 0.830638
vt 0.617442 0.795995
vt 0.603571 0.617442
vt 0.562630 0.617442
vt 0.449255 0.617442
vt 0.408313 0.617442
vt 0.616169 0.652084
vt 0.424060 0.677279
vt 0.395716 0.652084
vt 0.677279 0.830638
vt 0.696175 0.792846
vt 0.647662 0.664682
vt 0.647662 0.702473
vt 0.364223 0.702473
vt 0.364223 0.664682
vt 0.682304 0.652084
vt 0.707499 0.677279
vt 0.304386 0.677279
vt 0.329580 0.652084
vt 0.304386 0.808593
vt 0.677279 0.808593
vt 0.316983 0.617442
vt 0.617442 0.836936
vt 0.652084 0.840086
vt 0.655234 0.846384
vt 0.682304 0.840086
vt 0.647662 0.846384
vt 0.647662 0.855832
vt 0.364223 0.855832
vt 0.364223 0.846384
vt 0.329580 0.840086
vt 0.616169 0.852683
vt 0.613019 0.862131
vt 0.398866 0.862131
vt 0.395716 0.852683
vt 0.652084 0.852683
vt 0.617442 0.852683
vt 0.617442 0.862131
vt 0.585949 0.852683
vt 0.582799 0.862131
vt 0.326431 0.846384
vt 0.585949 0.840086
vt 0.582799 0.846384
vt 0.617442 0.843235
vt 0.647662 0.617442
vt 0.685454 0.582799
vt 0.698051 0.617442
vt 0.313834 0.617442
vt 0.326431 0.582799
vt 0.364223 0.617442
vt 0.647662 0.567053
vt 0.364223 0.567053
vt 0.613019 0.582799
vt 0.398866 0.582799
vt 0.597273 0.617442
vt 0.414612 0.617442
vt 0.613019 0.655234
vt 0.398866 0.655234
vt 0.647662 0.670980
vt 0.364223 0.670980
vt 0.685454 0.655234
vt 0.326431 0.655234
vt 0.578377 0.755054
vt 0.572078 0.786547
vt 0.505942 0.789697
vt 0.439807 0.786547
vt 0.433508 0.755054
vt 0.638214 0.742457
vt 0.600422 0.786547
vt 0.411463 0.786547
vt 0.373671 0.742457
vt 0.653960 0.160790
vt 0.613019 0.189134
vt 0.638214 0.138745
vt 0.411463 0.151342
vt 0.398866 0.189134
vt 0.373671 0.138745
vt 0.239523 0.761353
vt 0.236374 0.808593
vt 0.160790 0.745606
vt 0.189134 0.799145
vt 0.343451 0.761353
vt 0.340302 0.818041
vt 0.587825 0.758204
vt 0.682304 0.745606
vt 0.556332 0.858982
vt 0.345327 0.802294
vt 0.329580 0.745606
vt 0.455553 0.858982
vt 0.761037 0.748756
vt 0.754739 0.783398
vt 0.257146 0.783398
vt 0.250848 0.748756
vt 0.504066 0.748756
vt 0.579650 0.710964
vt 0.541858 0.783398
vt 0.601695 0.773950
vt 0.693025 0.770801
vt 0.670980 0.795995
vt 0.852368 0.693025
vt 0.792530 0.715071
vt 0.783082 0.686727
vt 0.228802 0.686727
vt 0.219354 0.715071
vt 0.159517 0.693025
vt 0.792530 0.783398
vt 0.704350 0.808593
vt 0.682304 0.852683
vt 0.329580 0.852683
vt 0.307535 0.808593
vt 0.219354 0.783398
vt 0.762311 0.808593
vt 0.825297 0.827489
vt 0.740265 0.852683
vt 0.778057 0.868430
vt 0.635064 0.825297
vt 0.568929 0.809550
vt 0.587825 0.768609
vt 0.424060 0.768609
vt 0.442956 0.809550
vt 0.376820 0.825297
vt 0.809550 0.836936
vt 0.718220 0.833787
vt 0.693025 0.871579
vt 0.531137 0.718220
vt 0.505942 0.693025
vt 0.505942 0.661532
vt 0.480748 0.718220
vt 0.572078 0.686727
vt 0.606721 0.708772
vt 0.405164 0.708772
vt 0.439807 0.686727
vt 0.638214 0.711921
vt 0.379970 0.778057
vt 0.373671 0.711921
vt 0.679155 0.696175
vt 0.682304 0.740265
vt 0.631915 0.778057
vt 0.329580 0.740265
vt 0.332730 0.696175
vt 0.748440 0.670980
vt 0.263445 0.670980
vt 0.764187 0.639487
vt 0.805128 0.670980
vt 0.206757 0.670980
vt 0.247698 0.639487
vt 0.757888 0.595397
vt 0.798829 0.601695
vt 0.213056 0.601695
vt 0.253997 0.595397
vt 0.704350 0.545007
vt 0.754739 0.541858
vt 0.257146 0.541858
vt 0.307535 0.545007
vt 0.657110 0.526112
vt 0.666558 0.500917
vt 0.345327 0.500917
vt 0.587825 0.557605
vt 0.556332 0.478872
vt 0.455553 0.478872
vt 0.354775 0.526112
vt 0.572078 0.576501
vt 0.505942 0.538709
vt 0.439807 0.576501
vt 0.546884 0.693025
vt 0.465001 0.693025
vt 0.556332 0.642636
vt 0.559481 0.604845
vt 0.505942 0.604845
vt 0.452404 0.604845
vt 0.531137 0.163940
vt 0.505942 0.160790
vt 0.572078 0.145044
vt 0.505942 0.138745
vt 0.439807 0.145044
vt 0.553182 0.182836
vt 0.600422 0.151342
vt 0.480748 0.163940
vt 0.550033 0.230075
vt 0.458703 0.182836
vt 0.461852 0.230075
vt 0.590974 0.340302
vt 0.537436 0.340302
vt 0.606721 0.236374
vt 0.458703 0.242673
vt 0.474449 0.340302
vt 0.405164 0.236374
vt 0.553182 0.242673
vt 0.540585 0.403288
vt 0.505942 0.387541
vt 0.505942 0.340302
vt 0.471300 0.403288
vt 0.505942 0.211180
vt 0.428483 0.833787
vt 0.428483 0.852683
vt 0.403288 0.830638
vt 0.409587 0.846384
vt 0.459976 0.830638
vt 0.466274 0.846384
vt 0.505942 0.830638
vt 0.521689 0.846384
vt 0.550033 0.846384
vt 0.461852 0.846384
vt 0.490196 0.846384
vt 0.441080 0.833787
vt 0.444229 0.852683
vt 0.469424 0.846384
vt 0.540585 0.830638
vt 0.543734 0.846384
vt 0.468151 0.846384
vt 0.471300 0.830638
vt 0.505942 0.390691
vt 0.543734 0.409587
vt 0.537436 0.419035
vt 0.474449 0.419035
vt 0.468151 0.409587
vt 0.437931 0.865280
vt 0.459976 0.858982
vt 0.524838 0.858982
vt 0.468151 0.858982
vt 0.487046 0.858982
vt 0.456827 0.858982
vt 0.428483 0.865280
vt 0.559481 0.852683
vt 0.550033 0.865280
vt 0.474449 0.855832
vt 0.461852 0.865280
vt 0.505942 0.437931
vt 0.550033 0.428483
vt 0.543734 0.456827
vt 0.468151 0.456827
vt 0.461852 0.428483
vt 0.505942 0.403288
vt 0.505942 0.463125
vt 0.546884 0.459976
vt 0.465001 0.459976
vt 0.556332 0.428483
vt 0.439807 0.422184
vt 0.455553 0.428483
vt 0.578377 0.393840
vt 0.433508 0.393840
vt 0.420911 0.340302
vt 0.393840 0.755054
vt 0.393840 0.818041
vt 0.419035 0.755054
vt 0.422184 0.818041
vt 0.444229 0.758204
vt 0.478872 0.858982
vt 0.505942 0.208030
vt 0.543734 0.189134
vt 0.468151 0.220628
vt 0.468151 0.189134
vt 0.524838 0.170238
vt 0.487046 0.170238
vt 0.505942 0.167089
vt 0.505942 0.808593
vt 0.524838 0.808593
vt 0.524838 0.786547
vt 0.487046 0.786547
vt 0.487046 0.808593
vt 0.543734 0.818041
vt 0.468151 0.789697
vt 0.468151 0.818041
vt 0.189134 0.818041
vt 0.220628 0.824339
vt 0.192284 0.789697
vt 0.217478 0.799145
vt 0.543734 0.824339
vt 0.505942 0.821190
vt 0.505942 0.795995
vt 0.468151 0.824339
vt 0.505942 0.204881
vt 0.505942 0.173388
vt 0.543734 0.217478
vt 0.487046 0.176537
vt 0.468151 0.217478
vt 0.524838 0.176537
vt 0.543734 0.192284
vt 0.468151 0.192284
vt 0.575227 0.607994
vt 0.430359 0.582799
vt 0.436657 0.607994
vt 0.578377 0.639487
vt 0.433508 0.639487
vt 0.455553 0.642636
vt 0.597273 0.563903
vt 0.414612 0.563903
vt 0.657110 0.814891
vt 0.597273 0.846384
vt 0.354775 0.830638
vt 0.354775 0.814891
vt 0.414612 0.846384
vt 0.657110 0.545007
vt 0.313834 0.560754
vt 0.354775 0.545007
vt 0.698051 0.560754
vt 0.272893 0.598546
vt 0.738992 0.598546
vt 0.269743 0.636338
vt 0.732693 0.661532
vt 0.279191 0.661532
vt 0.676006 0.680428
vt 0.335879 0.680428
vt 0.370522 0.693025
vt 0.641363 0.693025
vt 0.395716 0.689876
vt 0.616169 0.689876
vt 0.420911 0.670980
vt 0.590974 0.670980
vt 0.619318 0.680428
vt 0.411463 0.664682
vt 0.392567 0.680428
vt 0.641363 0.683577
vt 0.370522 0.683577
vt 0.732693 0.811742
vt 0.676006 0.843235
vt 0.672856 0.833787
vt 0.339028 0.833787
vt 0.335879 0.843235
vt 0.279191 0.811742
vt 0.742141 0.636338
vt 0.729544 0.633188
vt 0.291789 0.655234
vt 0.282341 0.633188
vt 0.691752 0.567053
vt 0.285490 0.604845
vt 0.320133 0.567053
vt 0.657110 0.554455
vt 0.354775 0.554455
vt 0.581526 0.582799
vt 0.587825 0.589098
vt 0.408313 0.570202
vt 0.424060 0.589098
vt 0.670980 0.846384
vt 0.639487 0.846384
vt 0.664682 0.836936
vt 0.639487 0.836936
vt 0.607994 0.846384
vt 0.611143 0.833787
vt 0.582799 0.843235
vt 0.589098 0.833787
vt 0.531137 0.833787
vt 0.505942 0.773950
vt 0.461852 0.777099
vt 0.480748 0.833787
vt 0.705623 0.777099
vt 0.787505 0.780249
vt 0.568929 0.836936
vt 0.635064 0.827489
vt 0.641363 0.770801
vt 0.370522 0.770801
vt 0.376820 0.827489
vt 0.442956 0.836936
vt 0.701200 0.755054
vt 0.310685 0.755054
vt 0.779933 0.729860
vt 0.231952 0.729860
vt 0.852368 0.770801
vt 0.184712 0.717262
vt 0.159517 0.770801
vt 0.585949 0.682620
vt 0.839770 0.710964
vt 0.817725 0.682620
vt 0.263445 0.698366
vt 0.194160 0.682620
vt 0.748440 0.698366
vt 0.329580 0.720412
vt 0.505942 0.289913
vt 0.505942 0.324555
vt 0.578377 0.352899
vt 0.433508 0.352899
vt 0.505942 0.195433
vt 0.556332 0.302510
vt 0.455553 0.302510
vt 0.505942 0.126148
vt 0.562630 0.214329
vt 0.449255 0.214329
vt 0.505942 0.764502
vt 0.572078 0.707814
vt 0.505942 0.717262
vt 0.439807 0.707814
vt 0.638214 0.692068
vt 0.373671 0.692068
vt 0.138745 0.742457
vt 0.233225 0.685769
vt 0.151342 0.692068
vt 0.318256 0.688918
vt 0.622467 0.233225
vt 0.606721 0.318256
vt 0.405164 0.318256
vt 0.638214 0.151342
vt 0.572078 0.138745
vt 0.439807 0.138745
vt 0.373671 0.151342
vt 0.389418 0.233225
vt 0.378094 0.695217
vt 0.302510 0.676321
vt 0.406437 0.704665
vt 0.428483 0.720412
vt 0.587825 0.733009
vt 0.682304 0.720412
vt 0.424060 0.733009
vt 0.424060 0.758204
vt 0.505942 0.548157
vt 0.641363 0.541858
vt 0.644512 0.459976
vt 0.367372 0.459976
vt 0.370522 0.541858
vt 0.505942 0.260611
vt 0.644512 0.314149
vt 0.625617 0.424376
vt 0.386268 0.424376
vt 0.367372 0.314149
vt 0.505942 0.389733
vt 0.505942 0.607036
vt 0.420911 0.597588
vt 0.590974 0.597588
vt 0.505942 0.644828
vt 0.433508 0.635380
vt 0.352899 0.635380
vt 0.362347 0.597588
vt 0.519813 0.698366
vt 0.614292 0.553498
vt 0.500917 0.559796
vt 0.505942 0.746564
vt 0.691752 0.696175
vt 0.320133 0.696175
vt 0.505942 0.647977
vt 0.688603 0.625932
vt 0.688603 0.503109
vt 0.323282 0.503109
vt 0.323282 0.625932
vt 0.505942 0.499959
vt 0.505942 0.311000
vt 0.323282 0.377136
vt 0.505942 0.881985
vt 0.688603 0.869387
vt 0.323282 0.869387
vt 0.827173 0.717262
vt 0.761037 0.644828
vt 0.213056 0.666873
vt 0.250848 0.644828
vt 0.798829 0.666873
vt 0.764187 0.553498
vt 0.184712 0.581842
vt 0.247698 0.553498
vt 0.827173 0.581842
vt 0.764187 0.452720
vt 0.184712 0.484213
vt 0.247698 0.452720
vt 0.822148 0.452720
vt 0.768609 0.484213
vt 0.793804 0.351941
vt 0.737116 0.386584
vt 0.817725 0.626890
vt 0.754739 0.652084
vt 0.764187 0.793804
vt 0.247698 0.793804
vt 0.257146 0.652084
vt 0.194160 0.626890
vt 0.688603 0.377136
vt 0.764187 0.351941
vt 0.247698 0.351941
vt 0.894582 0.503109
vt 0.863089 0.625932
vt 0.803252 0.553498
vt 0.730817 0.704665
vt 0.702473 0.644828
vt 0.505942 0.749713
vt 0.691752 0.730817
vt 0.688603 0.863089
vt 0.323282 0.863089
vt 0.320133 0.730817
vt 0.550033 0.705623
vt 0.584675 0.787505
vt 0.641363 0.796953
vt 0.370522 0.796953
vt 0.427209 0.787505
vt 0.461852 0.705623
vt 0.550033 0.777099
vt 0.505942 0.761353
vt 0.320133 0.704665
vt 0.505942 0.683577
vt 0.683577 0.717262
vt 0.648935 0.512557
vt 0.683577 0.666873
vt 0.746564 0.581842
vt 0.652084 0.449570
vt 0.626890 0.355091
vt 0.393840 0.424376
vt 0.441080 0.446421
vt 0.801978 0.559796
vt 0.669707 0.591290
vt 0.679155 0.446421
vt 0.332730 0.446421
vt 0.342178 0.591290
vt 0.209906 0.559796
vt 0.590974 0.720412
vt 0.417761 0.704665
vt 0.420911 0.720412
vt 0.450528 0.591290
vt 0.682304 0.482021
vt 0.587825 0.450528
vt 0.590974 0.428483
vt 0.420911 0.428483
vt 0.424060 0.450528
vt 0.329580 0.482021
vt 0.764187 0.516664
vt 0.701200 0.529261
vt 0.310685 0.529261
vt 0.247698 0.516664
vt 0.745291 0.465317
vt 0.701200 0.311000
vt 0.310685 0.311000
vt 0.266594 0.465317
vt 0.459976 0.314149
vt 0.529261 0.311000
vt 0.918503 0.711921
vt 0.864965 0.683577
vt 0.877562 0.664682
vt 0.134323 0.664682
vt 0.146920 0.683577
vt 0.093382 0.711921
vt 0.915354 0.686727
vt 1.003535 0.724519
vt 0.027246 0.696175
vt 0.096531 0.686727
vt 0.008350 0.724519
vt 0.003535 0.724519
vt -0.015361 0.696175
vt 0.016132 0.636338
vt 0.995753 0.636338
vt 1.027246 0.696175
vt 1.008350 0.724519
vt 0.050775 0.648935
vt -0.005913 0.551306
vt 0.017798 0.551306
vt -0.004247 0.636338
vt -0.038890 0.648935
vt 0.022431 0.541858
vt -0.078347 0.504066
vt 0.090232 0.504066
vt -0.010546 0.541858
vt 0.924802 0.478872
vt 0.921653 0.504066
vt 0.817725 0.463125
vt 0.172115 0.491469
vt 0.194160 0.463125
vt 0.921653 0.408629
vt 0.924802 0.383435
vt 0.861815 0.446421
vt 0.150069 0.446421
vt 0.087083 0.383435
vt 0.090232 0.408629
vt 0.994087 0.367688
vt 0.984639 0.351941
vt 0.027246 0.351941
vt 0.636338 0.367688
vt 0.620591 0.351941
vt 0.557605 0.351941
vt 0.984639 0.696175
vt 0.978340 0.664682
vt 1.003535 0.620591
vt 0.008350 0.620591
vt 0.033544 0.664682
vt 0.918503 0.658383
vt 0.093382 0.658383
vt 0.686727 0.414928
vt 0.664682 0.443272
vt 0.658383 0.386584
vt 0.642636 0.414928
vt 0.469424 0.465317
vt 0.510365 0.462167
vt 0.745291 0.469424
vt 0.839770 0.491469
vt 0.266594 0.469424
vt 0.519813 0.503109
vt 0.836621 0.652084
vt 0.846069 0.636338
vt 0.165816 0.636338
vt 0.839770 0.477914
vt 0.795680 0.462167
vt 0.178413 0.421226
vt 0.216205 0.462167
vt 0.846069 0.526112
vt 0.795680 0.535559
vt 0.795680 0.510365
vt 0.216205 0.510365
vt 0.216205 0.535559
vt 0.165816 0.526112
vt 0.811426 0.557605
vt 0.836621 0.554455
vt 0.175264 0.554455
vt 0.589098 0.421226
vt 0.601695 0.446421
vt 0.535559 0.455869
vt 0.827173 0.601695
vt 0.842920 0.589098
vt 0.168965 0.589098
vt 0.184712 0.601695
vt 0.864965 0.617442
vt 0.146920 0.617442
vt 0.636338 0.446421
vt 0.617442 0.424376
vt 0.636338 0.392882
vt 0.614292 0.402330
vt 0.589098 0.402330
vt 0.842920 0.421226
vt 0.811426 0.421226
vt 0.846069 0.402330
vt 0.197309 0.402330
vt 0.200458 0.421226
vt 0.165816 0.402330
vt 0.836621 0.421226
vt 0.839770 0.402330
vt 0.172115 0.402330
vt 0.175264 0.421226
vt 0.554455 0.421226
vt 0.526112 0.421226
vt 0.526112 0.402330
vt 0.846069 0.421226
vt 0.833472 0.421226
vt 0.849218 0.402330
vt 0.178413 0.402330
vt 0.162667 0.402330
vt 0.833472 0.402330
vt 0.150069 0.424376
vt 0.918503 0.386584
vt 0.887010 0.414928
vt 0.924802 0.364539
vt 0.121725 0.392882
vt 0.124875 0.414928
vt 0.087083 0.364539
vt 0.978340 0.355091
vt 0.984639 0.336195
vt 0.093382 0.386584
vt 0.027246 0.336195
vt 0.664682 0.355091
vt 0.617442 0.333045
vt 0.658383 0.336195
vt 0.994087 0.336195
vt 0.017798 0.336195
vt 0.927951 0.361389
vt 0.083934 0.361389
vt 0.839770 0.551306
vt 0.849218 0.526112
vt 0.883861 0.545007
vt 0.128024 0.545007
vt 0.162667 0.526112
vt 0.172115 0.551306
vt 0.864965 0.563903
vt 0.909055 0.570202
vt 0.102829 0.570202
vt 0.146920 0.563903
vt 0.893309 0.589098
vt 0.915354 0.614292
vt 0.080784 0.595397
vt 0.096531 0.614292
vt 0.931100 0.595397
vt 0.953146 0.604845
vt 0.058739 0.604845
vt 0.924802 0.652084
vt 0.890159 0.636338
vt 0.943698 0.630039
vt 0.121725 0.636338
vt 0.068187 0.630039
vt 0.864965 0.614292
vt 0.118576 0.589098
vt 0.146920 0.614292
vt 0.846069 0.589098
vt 0.165816 0.589098
vt 0.814576 0.557605
vt 0.197309 0.557605
vt 0.861815 0.424376
vt 0.128024 0.396032
vt 0.927951 0.519813
vt 0.083934 0.519813
vt 0.994087 0.554455
vt 0.017798 0.554455
vt 0.012983 0.617442
vt -0.046854 0.604845
vt -0.068900 0.595397
vt -0.001098 0.617442
vt 0.984639 0.658383
vt 1.012983 0.617442
vt 0.027246 0.658383
vt 0.087083 0.652084
vt 0.924802 0.399181
vt 0.817725 0.481063
vt 0.924802 0.333045
vt 0.187861 0.399181
vt 0.194160 0.481063
vt 0.087083 0.333045
vt 0.022431 0.358240
vt -0.075198 0.399181
vt 0.035028 0.317299
vt 0.087083 0.399181
vt -0.023143 0.317299
vt 0.648935 0.361389
vt 0.541858 0.358240
vt 0.541858 0.317299
vt 0.724519 0.361389
vt 0.639487 0.329896
vt 0.918503 0.405480
vt 1.003535 0.361389
vt 1.009834 0.311000
vt 0.002051 0.311000
vt 0.008350 0.361389
vt 0.093382 0.405480
vt 0.864965 0.436973
vt 0.918503 0.336195
vt 0.093382 0.336195
vt 0.146920 0.436973
vt 0.918503 0.696175
vt 0.924802 0.485170
vt 0.824024 0.469424
vt 0.187861 0.469424
vt 0.087083 0.485170
vt 0.093382 0.696175
vt 1.009834 0.708772
vt 0.976857 0.541858
vt 1.002051 0.708772
vt 1.087083 0.485170
vt 0.009834 0.708772
vt 0.057073 0.639487
vt 0.035028 0.541858
vt 0.954812 0.639487
vt 0.683577 0.436973
vt 0.852368 0.674130
vt 0.159517 0.674130
vt 0.764187 0.358240
vt 0.247698 0.358240
vt 0.568929 0.792846
vt 0.541858 0.792846
vt 0.587825 0.677279
vt 0.696175 0.764502
vt 0.685454 0.846384
vt 0.655234 0.862131
vt 0.357924 0.160790
vt 0.666558 0.802294
vt 0.783082 0.824339
vt 0.228802 0.824339
vt 0.768609 0.874728
vt 0.505942 0.245822
vt 0.546884 0.830638
vt 0.465001 0.830638
vt 0.463125 0.830638
vt 0.505942 0.846384
vt 0.543734 0.858982
vt 0.537436 0.855832
vt 0.452404 0.852683
vt 0.524838 0.459976
vt 0.487046 0.459976
vt 0.572078 0.422184
vt 0.543734 0.220628
vt 0.505942 0.786547
vt 0.543734 0.789697
vt 0.543734 0.799145
vt 0.468151 0.799145
vt 0.657110 0.830638
vt 0.600422 0.664682
vt 0.672856 0.677279
vt 0.339028 0.677279
vt 0.720096 0.805443
vt 0.291789 0.805443
vt 0.720096 0.655234
vt 0.726395 0.604845
vt 0.603571 0.570202
vt 0.584675 0.780249
vt 0.427209 0.780249
vt 0.172115 0.710964
vt 0.450528 0.733009
vt 0.505942 0.441080
vt 0.578377 0.635380
vt 0.827173 0.484213
vt 0.827173 0.737116
vt 0.184712 0.737116
vt 0.691752 0.704665
vt 0.701200 0.743415
vt 0.310685 0.743415
vt 0.594123 0.704665
vt 0.961110 0.648935
vt -0.075198 0.478872
vt 0.087083 0.478872
vt 0.172115 0.477914
vt 0.017798 0.367688
vt 0.551306 0.367688
vt 1.016132 0.636338
vt 0.175264 0.652084
vt 0.833472 0.513514
vt 0.178413 0.513514
vt 0.200458 0.557605
vt 0.557605 0.421226
vt 0.887010 0.642636
vt 0.124875 0.642636
vt 0.814576 0.402330
vt 0.168965 0.421226
vt 0.551306 0.402330
vt 0.165816 0.421226
vt 0.890159 0.392882
vt 0.033544 0.355091
vt 0.554455 0.336195
vt 0.883861 0.396032
vt 0.861815 0.513514
vt 0.150069 0.513514
vt -0.005913 0.554455
vt 0.824024 0.399181
vt -0.075198 0.333045
vt -0.010546 0.358240
vt 0.708772 0.311000
vt 0.852368 0.377136
vt 0.159517 0.377136
vt 1.035028 0.541858
vt 1.093382 0.696175
vt 0.674130 0.377136
vn 0.663036 -0.723312 -0.192882
vn -0.666010 -0.717242 -0.204926
vn 0.828520 -0.473439 -0.299015
vn -0.830101 -0.465433 -0.307090
vn 0.425062 -0.460483 -0.779280
vn -0.408092 -0.432825 -0.803818
vn 0.338488 -0.764516 -0.548582
vn -0.371366 -0.790753 -0.486617
vn -0.039277 -0.851001 -0.523693
vn 0.099184 -0.831091 -0.547221
vn -0.283710 -0.454619 -0.844293
vn 0.258889 -0.478946 -0.838801
vn -0.765568 -0.556776 -0.322345
vn 0.765568 -0.556776 -0.322345
vn -0.465798 -0.865053 -0.186321
vn 0.465798 -0.865053 -0.186320
vn -0.467207 -0.867671 0.169895
vn 0.482283 -0.852154 0.203067
vn -0.771027 -0.547835 0.324643
vn 0.771027 -0.547835 0.324643
vn -0.265910 -0.505229 0.820997
vn 0.265909 -0.505230 0.820997
vn -0.055385 -0.830773 0.553849
vn 0.055385 -0.830773 0.553849
vn 0.344839 -0.738942 0.578836
vn -0.344839 -0.738941 0.578837
vn 0.423136 -0.504030 0.752934
vn -0.423137 -0.504030 0.752934
vn 0.828520 -0.473439 0.299015
vn -0.828520 -0.473439 0.299014
vn 0.665187 -0.725658 0.175917
vn -0.665186 -0.725659 0.175916
vn 0.768353 0.548817 0.329293
vn -0.768352 0.548818 0.329293
vn 0.197726 0.543750 0.815623
vn -0.197726 0.543750 0.815623
vn -0.408248 0.408248 0.816497
vn 0.408249 0.408250 0.816496
vn -0.796396 0.530929 0.289599
vn 0.796395 0.530931 0.289598
vn -0.789475 0.526314 -0.315791
vn 0.832845 0.403802 -0.378567
vn -0.408248 0.408248 -0.816497
vn 0.432042 0.500259 -0.750387
vn 0.197727 0.543749 -0.815623
vn -0.214297 0.520430 -0.826577
vn 0.752218 0.554265 -0.356313
vn -0.839967 0.419977 -0.343621
vn 0.400039 -0.914375 -0.062344
vn -0.400039 -0.914375 -0.062345
vn 0.306938 -0.935429 -0.175392
vn -0.306938 -0.935429 -0.175392
vn 0.094511 -0.978473 -0.183463
vn -0.094511 -0.978473 -0.183463
vn -0.062354 -0.997652 -0.028343
vn 0.062354 -0.997652 -0.028342
vn -0.062358 -0.997716 0.025982
vn 0.062358 -0.997716 0.025982
vn 0.099561 -0.979891 0.172922
vn -0.099560 -0.979891 0.172921
vn 0.303571 -0.938311 0.165583
vn -0.303571 -0.938311 0.165583
vn 0.400163 -0.914659 0.057167
vn -0.400163 -0.914659 0.057167
vn 0.105862 -0.461557 -0.880772
vn -0.105862 -0.461557 -0.880772
vn 0.196715 -0.421532 -0.885220
vn -0.196715 -0.421532 -0.885220
vn 0.548630 -0.678306 -0.488780
vn -0.623035 -0.655826 -0.426286
vn 0.756147 -0.650685 -0.069646
vn -0.789792 -0.613130 -0.017321
vn 0.801465 -0.585583 0.121434
vn -0.752771 -0.656029 0.054418
vn 0.229854 -0.379843 -0.896039
vn -0.435894 -0.579917 -0.688253
vn 0.292804 -0.728656 -0.619134
vn -0.292804 -0.728656 -0.619134
vn 0.689086 -0.587750 -0.423923
vn -0.689836 -0.593499 -0.414590
vn 0.572975 -0.696825 -0.431433
vn -0.572975 -0.696825 -0.431433
vn 0.386059 -0.583648 0.714362
vn -0.386059 -0.583648 0.714362
vn 0.507933 -0.574766 0.641599
vn -0.507933 -0.574766 0.641599
vn 0.630433 -0.575613 0.520792
vn -0.581008 -0.633826 0.510582
vn -0.051675 -0.745595 0.664392
vn 0.051675 -0.745595 0.664393
vn -0.787931 -0.533403 0.307647
vn 0.787931 -0.533403 0.307647
vn -0.622544 -0.553372 0.553371
vn 0.622543 -0.553372 0.553371
vn 0.401601 -0.826244 -0.395017
vn -0.401601 -0.826244 -0.395017
vn 0.218051 -0.854762 -0.470993
vn -0.222422 -0.855469 -0.467656
vn -0.171075 -0.807476 -0.564549
vn 0.171075 -0.807476 -0.564549
vn -0.180308 -0.687546 -0.703399
vn 0.180308 -0.687546 -0.703399
vn 0.420680 -0.668136 -0.613696
vn -0.420680 -0.668137 -0.613695
vn 0.437336 -0.844716 -0.308531
vn -0.437336 -0.844717 -0.308531
vn 0.343363 -0.933242 -0.105650
vn -0.343362 -0.933242 -0.105650
vn 0.357887 -0.881938 -0.306762
vn -0.322277 -0.905445 -0.276238
vn 0.306946 -0.927976 0.211293
vn -0.481544 -0.842701 -0.240772
vn 0.386906 -0.906047 0.171414
vn 0.292158 -0.913575 0.282884
vn 0.429933 -0.542535 -0.721674
vn -0.429933 -0.542536 -0.721673
vn 0.386342 -0.921278 -0.044580
vn -0.054742 -0.930608 -0.361901
vn -0.062563 -0.988504 -0.137640
vn 0.062563 -0.988505 -0.137640
vn 0.020355 -0.620836 -0.783676
vn -0.097666 -0.755626 -0.647680
vn 0.207390 -0.829562 -0.518475
vn -0.147044 -0.735216 -0.661692
vn 0.482515 -0.864507 -0.140735
vn -0.482515 -0.864507 -0.140735
vn 0.281888 -0.958419 -0.044418
vn -0.332047 -0.943234 -0.007298
vn 0.359534 -0.928793 -0.089884
vn -0.313970 -0.938175 -0.145775
vn -0.030222 -0.997329 0.066488
vn 0.030222 -0.997329 0.066488
vn 0.000000 -0.997925 -0.064383
vn 0.000000 -0.997925 -0.064382
vn -0.000001 -1.000000 -0.000002
vn 0.000001 -1.000000 0.000000
vn 0.847337 0.141223 -0.511934
vn -0.744073 -0.114472 -0.658218
vn 0.944759 0.265713 0.191905
vn -0.944759 0.265714 0.191904
vn 0.098457 0.452900 0.886108
vn -0.098457 0.452900 0.886108
vn -0.854357 0.085436 0.512615
vn 0.854357 0.085436 0.512615
vn 0.398334 -0.270866 -0.876334
vn -0.398334 -0.270866 -0.876334
vn 0.287347 -0.766259 -0.574698
vn -0.287347 -0.766259 -0.574699
vn -0.781404 -0.279073 0.558145
vn 0.520720 -0.591725 0.615396
vn 0.089713 -0.583130 0.807410
vn -0.127000 -0.634999 0.762002
vn 0.745357 -0.596284 0.298142
vn -0.745357 -0.596284 0.298142
vn 0.604552 -0.453413 -0.654930
vn 0.000000 -0.707108 -0.707106
vn 0.048634 -0.972689 0.226962
vn -0.048634 -0.972689 0.226961
vn -0.056293 -0.963233 -0.262702
vn -0.428573 -0.285716 -0.857141
vn 0.006388 -0.996525 0.083044
vn 0.781795 -0.504703 -0.366158
vn -0.872872 -0.436435 -0.218218
vn -0.581914 -0.727393 -0.363697
vn 0.243483 -0.931951 -0.268670
vn -0.243483 -0.931951 -0.268670
vn 0.282005 -0.958816 0.033840
vn -0.282005 -0.958816 0.033840
vn 0.816497 -0.408248 0.408248
vn -0.816497 -0.408248 0.408248
vn 0.868220 -0.374420 0.325583
vn -0.868220 -0.374420 0.325582
vn 0.893156 -0.131239 0.430173
vn -0.910178 -0.411810 -0.044590
vn 0.357931 -0.417587 -0.835168
vn -0.357931 -0.417587 -0.835168
vn -0.135320 -0.969788 -0.202980
vn 0.192448 -0.962251 -0.192451
vn -0.356915 -0.927980 0.107074
vn 0.188143 -0.940721 -0.282218
vn -0.124033 -0.992278 0.000000
vn 0.065510 -0.917168 0.393080
vn -0.158232 -0.271260 0.949411
vn 0.158232 -0.271260 0.949411
vn -0.739600 -0.184900 0.647151
vn 0.646160 -0.084281 0.758534
vn -1.000000 -0.000000 0.000000
vn 1.000000 0.000000 0.000000
vn 0.305139 -0.118120 -0.944954
vn -0.305140 -0.118120 -0.944954
vn 0.015963 -0.957704 -0.287312
vn -0.052632 -0.947369 -0.315789
vn 0.135291 -0.927721 -0.347894
vn -0.135291 -0.927721 -0.347894
vn -0.448144 -0.844576 -0.293017
vn 0.598987 -0.762346 -0.245038
vn -0.286864 -0.952389 -0.103270
vn 0.521445 -0.851690 0.052144
vn -0.270910 -0.962197 0.028025
vn 0.270910 -0.962197 0.028024
vn -0.577350 -0.577350 -0.577351
vn 0.577350 -0.577349 -0.577351
vn -0.265484 -0.491145 -0.829636
vn 0.000000 -0.768221 -0.640185
vn 0.418605 -0.697674 -0.581395
vn -0.397220 -0.662034 -0.635553
vn 0.591414 -0.623381 -0.511493
vn -0.516783 -0.828805 -0.214517
vn 0.544021 -0.835464 -0.077718
vn -0.588228 -0.800373 -0.115718
vn 0.573167 -0.809910 0.124604
vn -0.573167 -0.809909 0.124605
vn 0.434745 -0.563734 0.702282
vn -0.434745 -0.563734 0.702282
vn 0.406303 -0.568824 0.715092
vn 0.061287 -0.949920 0.306426
vn 0.152410 -0.929701 0.335303
vn -0.177193 -0.903681 0.389824
vn -0.021878 -0.951687 0.306290
vn 0.012939 -0.983371 0.181147
vn 0.280430 -0.934765 -0.218115
vn -0.355267 -0.737859 -0.573890
vn 0.266680 -0.914326 -0.304777
vn -0.296333 -0.931335 -0.211664
vn -0.276290 -0.911756 -0.303916
vn 0.276290 -0.911756 -0.303916
vn -0.116249 -0.348743 -0.929981
vn 0.116248 -0.348742 -0.929981
vn -0.381002 -0.889001 -0.253999
vn 0.320712 -0.908688 -0.267262
vn -0.439232 -0.897561 -0.038194
vn 0.439231 -0.897562 -0.038194
vn -0.221583 -0.791361 0.569780
vn 0.053240 -0.931677 0.359365
vn -0.082762 -0.744845 0.662085
vn 0.082762 -0.744847 0.662083
vn 0.366677 -0.774097 0.516063
vn -0.366677 -0.774097 0.516063
vn 0.498784 -0.685826 0.529960
vn -0.498784 -0.685828 0.529957
vn 0.601446 -0.761830 -0.240579
vn -0.738202 -0.492132 -0.461372
vn 0.829186 -0.552789 -0.082918
vn -0.806064 -0.588208 -0.065358
vn 0.779987 -0.614535 0.118181
vn -0.790347 -0.602166 0.112906
vn -0.694716 0.118249 0.709497
vn 0.404310 0.324774 0.855018
vn -0.855186 0.366508 0.366508
vn 0.846507 0.380102 0.372757
vn -0.267241 0.454539 0.849692
vn 0.267241 0.454539 0.849692
vn 0.596285 0.298142 0.745356
vn -0.596285 0.298142 0.745356
vn 0.383925 0.296122 0.874593
vn -0.383925 0.296122 0.874593
vn 0.278944 0.281652 0.918076
vn -0.285868 0.295397 0.911603
vn 0.793636 0.570015 0.212659
vn -0.793636 0.570016 0.212659
vn 0.452713 0.514018 -0.728585
vn -0.595504 0.371473 -0.712308
vn 0.440781 0.366283 -0.819481
vn -0.249041 0.581095 -0.774795
vn 0.043139 0.909519 -0.413418
vn -0.043139 0.909519 -0.413418
vn 0.318353 0.943268 -0.094327
vn -0.318353 0.943268 -0.094327
vn 0.309502 0.785659 -0.535676
vn -0.309502 0.785659 -0.535676
vn 0.058475 0.203272 -0.977375
vn -0.177679 0.065460 -0.981909
vn 0.101591 0.241281 -0.965123
vn -0.134051 0.211502 -0.968141
vn 0.608215 0.721282 -0.331400
vn -0.980180 -0.048048 0.192192
vn 0.920777 0.361734 0.146009
vn -0.944069 0.273006 0.184939
vn 0.087930 0.994709 0.053124
vn -0.247475 0.968747 -0.016921
vn -0.209312 0.971069 -0.114950
vn 0.209312 0.971069 -0.114950
vn 0.204116 0.971099 0.123707
vn -0.204116 0.971099 0.123707
vn 0.920408 0.365241 0.139456
vn -0.918440 0.371525 0.135786
vn 0.931845 0.218842 0.289436
vn -0.931844 0.218843 0.289437
vn 0.913248 0.279733 0.296189
vn -0.913248 0.279733 0.296189
vn 0.882456 0.116368 0.455774
vn -0.882456 0.116367 0.455775
vn 0.279448 0.232873 -0.931493
vn -0.279448 0.232873 -0.931493
vn 0.367655 0.798255 -0.477094
vn -0.367655 0.798255 -0.477094
vn 0.290628 0.455164 -0.841642
vn -0.290628 0.455164 -0.841642
vn 0.265974 0.138263 -0.954013
vn -0.303090 0.111459 -0.946422
vn 0.284209 0.232534 -0.930136
vn -0.348743 0.116248 -0.929981
vn 0.690269 -0.049627 -0.721849
vn -0.690269 -0.049627 -0.721849
vn 0.691648 -0.010171 -0.722163
vn -0.861521 -0.378940 -0.337915
vn 0.256742 0.949434 -0.180715
vn -0.256742 0.949434 -0.180715
vn 0.129094 -0.246297 0.960558
vn -0.129094 -0.246297 0.960558
vn 0.120927 0.179005 0.976388
vn -0.137320 0.194258 0.971291
vn 0.300033 0.706593 0.640864
vn -0.387556 0.735696 0.555475
vn 0.352189 0.078264 0.932651
vn -0.565950 0.318347 0.760497
vn -0.094386 -0.736210 0.670139
vn -0.343167 -0.630260 0.696426
vn 0.625483 -0.143789 0.766874
vn -0.583766 -0.178835 0.791982
vn 0.690128 0.195935 0.696659
vn -0.715914 0.214346 0.664472
vn 0.716578 0.662781 0.217341
vn -0.716578 0.662781 0.217341
vn 0.714499 0.554644 0.426452
vn -0.058015 0.928240 0.367429
vn 0.675140 0.144673 0.723364
vn -0.595903 0.217424 0.773063
vn 0.738071 -0.167585 0.653580
vn -0.690540 -0.133295 0.710905
vn 0.776627 -0.533022 0.335766
vn -0.677195 -0.555627 0.482375
vn 0.434690 0.096598 0.895385
vn -0.434689 0.096597 0.895385
vn 0.299340 -0.816742 0.493283
vn -0.299340 -0.816742 0.493283
vn -0.181856 0.976636 0.114502
vn 0.181856 0.976636 0.114502
vn 0.041931 -0.926897 0.372967
vn -0.023299 0.246579 0.968843
vn -0.161571 -0.969432 0.184653
vn 0.161571 -0.969432 0.184653
vn 0.966016 -0.199549 -0.164294
vn -0.966016 -0.199549 -0.164294
vn 0.933361 -0.270976 0.235393
vn -0.945595 -0.325072 0.013328
vn 0.901927 0.206516 0.379314
vn -0.996980 -0.017105 0.075751
vn 0.995115 -0.030308 -0.093955
vn -0.995115 -0.030309 -0.093955
vn 0.662474 0.003701 -0.749076
vn -0.662474 0.003701 -0.749076
vn 0.372238 -0.084555 -0.924278
vn -0.372238 -0.084555 -0.924278
vn 0.548020 -0.317275 -0.773958
vn -0.387671 -0.182554 -0.903540
vn 0.499284 -0.159026 -0.851720
vn -0.848946 -0.479838 -0.221464
vn 0.732489 -0.240675 -0.636817
vn -0.732489 -0.240675 -0.636817
vn 0.263733 -0.853251 -0.449897
vn -0.263733 -0.853251 -0.449897
vn 0.538262 0.793445 -0.284111
vn -0.538262 0.793445 -0.284111
vn 0.431031 0.852017 -0.297118
vn -0.431030 0.852017 -0.297118
vn 0.456721 0.432033 -0.777659
vn -0.456720 0.432033 -0.777659
vn 0.744954 0.244671 -0.620629
vn -0.744954 0.244671 -0.620629
vn 0.497205 0.747333 -0.440773
vn -0.497205 0.747333 -0.440774
vn 0.259061 -0.851204 0.456442
vn -0.259062 -0.851203 0.456443
vn 0.410190 -0.869606 0.274827
vn -0.503293 -0.862785 0.047931
vn 0.415277 -0.901245 0.123700
vn -0.415277 -0.901246 0.123700
vn 0.196562 -0.979166 -0.050960
vn -0.196561 -0.979166 -0.050960
vn 0.372045 -0.903540 0.212597
vn -0.372046 -0.903540 0.212598
vn 0.613244 -0.761743 -0.208997
vn -0.624650 -0.663289 -0.412140
vn 0.407491 -0.520087 0.750640
vn -0.407491 -0.520087 0.750640
vn -0.264198 -0.490652 0.830338
vn 0.269338 -0.485980 0.831433
vn -0.863867 -0.431937 0.259160
vn 0.863867 -0.431937 0.259160
vn -0.528036 -0.770640 -0.356780
vn 0.528035 -0.770641 -0.356780
vn 0.415649 -0.665809 -0.619625
vn -0.415650 -0.665808 -0.619625
vn 0.688357 -0.549730 -0.473245
vn -0.714339 -0.562212 -0.416699
vn 0.622061 0.115081 -0.774466
vn -0.622061 0.115081 -0.774466
vn -0.184950 -0.950557 0.249467
vn 0.184950 -0.950558 0.249467
vn 0.887036 0.256564 -0.383852
vn -0.914237 0.172933 -0.366421
vn 0.371135 -0.927837 0.037114
vn 0.120385 -0.963087 0.240771
vn 0.137793 -0.578731 0.803793
vn -0.023355 -0.098089 0.994904
vn 0.580247 -0.790124 0.197531
vn -0.580247 -0.790124 0.197531
vn 0.102194 -0.566713 0.817553
vn -0.580199 -0.791180 0.193399
vn 0.749676 -0.603902 -0.270716
vn -0.749676 -0.603903 -0.270716
vn 0.689502 -0.618985 -0.376092
vn -0.689502 -0.618985 -0.376092
vn 0.466760 -0.771168 -0.432937
vn -0.466761 -0.771168 -0.432937
vn 0.877870 -0.007601 -0.478838
vn -0.877870 -0.007601 -0.478838
vn 0.912871 0.182573 -0.365148
vn -0.912871 0.182573 -0.365148
vn 0.997202 0.072524 -0.018131
vn -0.997202 0.072524 -0.018131
vn 0.772349 -0.274060 -0.573034
vn -0.676752 -0.104116 -0.728811
vn 0.775715 -0.129285 -0.617699
vn -0.775715 -0.129285 -0.617699
vn 0.702247 -0.117041 -0.702246
vn -0.702246 -0.117041 -0.702248
vn 0.122756 0.143216 0.982049
vn -0.122756 0.143216 0.982049
vn 0.937042 -0.156174 0.312348
vn -0.937043 -0.156173 0.312348
vn 0.702246 -0.117040 -0.702248
vn -0.624695 0.000000 -0.780869
vn 0.110431 0.000000 0.993884
vn 0.109335 -0.140574 0.984015
vn 0.661828 -0.374620 -0.649341
vn -0.586648 -0.298858 -0.752680
vn 0.296805 -0.389558 -0.871867
vn -0.252880 -0.331904 -0.908786
vn -0.827110 0.338818 -0.448431
vn 0.822210 0.086546 -0.562566
vn -0.847425 0.466089 0.254227
vn 0.847426 0.466087 0.254228
vn -0.635053 0.498972 0.589691
vn 0.635054 0.498969 0.589692
vn -0.172328 0.024619 0.984732
vn 0.172328 0.024618 0.984732
vn 0.149020 -0.987254 0.055883
vn -0.149020 -0.987254 0.055882
vn 0.312347 -0.937043 0.156174
vn -0.312347 -0.937042 0.156175
vn 0.382991 -0.923683 0.011265
vn -0.236805 -0.970908 0.035521
vn 0.155869 -0.987170 -0.034635
vn -0.155869 -0.987170 -0.034636
vn 0.328720 -0.732774 0.595806
vn -0.308264 -0.933858 -0.181333
vn 0.400809 -0.916134 -0.007157
vn -0.400809 -0.916134 -0.007157
vn 0.082885 -0.994618 -0.062163
vn -0.082885 -0.994618 -0.062163
vn 0.041065 -0.985562 0.164261
vn -0.071067 -0.994937 -0.071067
vn -0.487048 -0.626206 0.608810
vn 0.298142 -0.596285 0.745357
vn 0.557086 -0.817060 -0.148556
vn -0.557086 -0.817060 -0.148556
vn 0.452596 -0.873860 -0.177557
vn -0.452596 -0.873860 -0.177557
vn 0.411053 -0.340589 -0.845597
vn -0.411053 -0.340589 -0.845597
vn 0.525067 -0.795557 0.302312
vn -0.525058 -0.827977 0.196896
vn 0.297964 -0.757979 0.580246
vn -0.297964 -0.757979 0.580245
vn 0.073695 0.094551 -0.992789
vn -0.110453 0.067778 -0.991568
vn 0.585489 -0.180150 -0.790411
vn -0.446086 0.084853 -0.890959
vn 0.924652 -0.284509 -0.253129
vn -0.924652 -0.284506 -0.253129
vn 0.847951 -0.010600 0.529969
vn -0.847951 -0.010600 0.529969
vn -0.298426 0.318470 0.899733
vn 0.298426 0.318469 0.899733
vn -0.542987 0.186104 0.818859
vn 0.542987 0.186105 0.818859
vn -0.548228 0.836320 -0.003883
vn 0.548228 0.836320 -0.003883
vn -0.266746 0.963745 0.006422
vn 0.113643 0.992021 -0.054588
vn 0.404625 0.914097 0.026581
vn -0.404625 0.914097 0.026581
vn -0.748378 0.027049 0.662720
vn 0.748379 0.027048 0.662720
vn 0.684354 0.708794 -0.171088
vn -0.684354 0.708794 -0.171088
vn 0.007891 0.402462 -0.915403
vn 0.570200 0.106521 -0.814571
vn 0.666010 -0.717242 -0.204926
vn -0.663035 -0.723312 -0.192882
vn 0.830101 -0.465434 -0.307089
vn -0.828520 -0.473439 -0.299014
vn 0.408092 -0.432825 -0.803818
vn -0.425062 -0.460484 -0.779280
vn 0.371366 -0.790753 -0.486617
vn -0.338488 -0.764515 -0.548582
vn -0.099184 -0.831091 -0.547221
vn 0.039277 -0.851001 -0.523693
vn -0.258889 -0.478945 -0.838802
vn 0.283710 -0.454619 -0.844293
vn -0.774251 -0.530758 -0.344719
vn 0.774251 -0.530758 -0.344719
vn -0.470596 -0.859812 -0.198145
vn 0.470596 -0.859812 -0.198146
vn -0.482283 -0.852155 0.203066
vn 0.467207 -0.867671 0.169894
vn -0.764039 -0.555665 0.327842
vn 0.764039 -0.555665 0.327842
vn -0.241292 -0.527825 0.814358
vn 0.241292 -0.527825 0.814358
vn -0.115470 -0.808290 0.577351
vn 0.115470 -0.808290 0.577351
vn 0.378344 -0.770200 0.513466
vn -0.378344 -0.770200 0.513466
vn 0.406930 -0.478742 0.777955
vn -0.406930 -0.478742 0.777955
vn 0.827165 -0.479848 0.292478
vn -0.827165 -0.479848 0.292479
vn 0.674819 -0.707577 0.209653
vn -0.674819 -0.707577 0.209653
vn 0.847999 0.423999 0.317998
vn -0.847999 0.423999 0.317998
vn 0.214297 0.520432 0.826576
vn -0.214297 0.520430 0.826577
vn -0.432042 0.500259 0.750387
vn 0.432042 0.500260 0.750386
vn -0.846181 0.399587 0.352574
vn 0.846181 0.399585 0.352576
vn -0.832845 0.403806 -0.378564
vn 0.789474 0.526316 -0.315788
vn -0.432042 0.500260 -0.750387
vn 0.408248 0.408249 -0.816496
vn 0.214296 0.520432 -0.826576
vn -0.197726 0.543750 -0.815623
vn 0.839965 0.419981 -0.343621
vn -0.752217 0.554266 -0.356312
vn 0.141434 -0.524671 -0.839474
vn -0.141434 -0.524671 -0.839474
vn 0.233571 -0.471812 -0.850199
vn -0.233571 -0.471812 -0.850199
vn 0.623035 -0.655826 -0.426286
vn -0.548630 -0.678306 -0.488780
vn 0.789793 -0.613129 -0.017321
vn -0.756148 -0.650684 -0.069646
vn 0.752771 -0.656029 0.054417
vn -0.801466 -0.585582 0.121434
vn 0.435894 -0.579918 -0.688253
vn -0.229854 -0.379843 -0.896039
vn 0.442082 -0.579329 -0.684793
vn -0.442082 -0.579329 -0.684793
vn 0.689836 -0.593499 -0.414590
vn -0.689086 -0.587750 -0.423923
vn 0.766752 -0.588301 -0.256891
vn -0.766752 -0.588301 -0.256891
vn 0.573765 -0.690746 -0.440073
vn -0.573765 -0.690746 -0.440072
vn 0.505128 -0.567014 0.650646
vn -0.505128 -0.567015 0.650646
vn 0.581007 -0.633827 0.510582
vn -0.630433 -0.575613 0.520792
vn -0.032792 -0.754200 0.655826
vn 0.032792 -0.754200 0.655825
vn -0.655169 -0.681289 0.326496
vn 0.655169 -0.681289 0.326496
vn -0.567735 -0.607161 0.555907
vn 0.567735 -0.607161 0.555907
vn 0.648351 -0.660469 -0.378710
vn -0.648351 -0.660470 -0.378710
vn 0.222422 -0.855469 -0.467656
vn -0.218052 -0.854763 -0.470992
vn 0.009908 -0.868607 -0.495403
vn -0.009908 -0.868607 -0.495403
vn 0.046214 -0.811300 -0.582801
vn -0.046214 -0.811300 -0.582801
vn -0.426252 -0.822056 -0.377536
vn 0.426252 -0.822056 -0.377536
vn -0.086092 -0.996211 0.012298
vn 0.086092 -0.996211 0.012298
vn 0.437362 -0.845567 -0.306155
vn -0.437362 -0.845567 -0.306155
vn 0.322277 -0.905445 -0.276236
vn -0.357887 -0.881938 -0.306762
vn 0.481544 -0.842701 -0.240772
vn -0.306946 -0.927976 0.211293
vn -0.292158 -0.913575 0.282884
vn -0.386906 -0.906047 0.171414
vn 0.334643 -0.923905 -0.185510
vn -0.334643 -0.923905 -0.185510
vn 0.054742 -0.930608 -0.361901
vn -0.386342 -0.921278 -0.044580
vn 0.057131 -0.971217 -0.231242
vn -0.057131 -0.971217 -0.231242
vn 0.097666 -0.755626 -0.647680
vn -0.020355 -0.620834 -0.783677
vn 0.147043 -0.735215 -0.661693
vn -0.207390 -0.829561 -0.518476
vn 0.175467 -0.914934 -0.363466
vn -0.175467 -0.914934 -0.363466
vn 0.332047 -0.943234 -0.007298
vn -0.281888 -0.958419 -0.044418
vn 0.313970 -0.938175 -0.145773
vn -0.359534 -0.928793 -0.089881
vn 0.000000 -0.998752 0.049937
vn -0.004435 -0.997775 -0.066518
vn 0.004435 -0.997775 -0.066519
vn -0.000000 -1.000000 0.000000
vn 0.744073 -0.114472 -0.658219
vn -0.847337 0.141223 -0.511933
vn 0.949991 0.158331 0.269164
vn -0.949991 0.158331 0.269164
vn 0.070859 0.382641 0.921176
vn -0.070859 0.382641 0.921176
vn -0.722993 -0.683912 0.097702
vn 0.722993 -0.683912 0.097702
vn 0.440226 -0.176091 -0.880451
vn -0.440226 -0.176091 -0.880451
vn 0.287348 -0.766263 -0.574694
vn -0.287348 -0.766263 -0.574693
vn -0.520720 -0.591726 0.615395
vn 0.781405 -0.279073 0.558145
vn 0.127000 -0.634999 0.762002
vn -0.089713 -0.583130 0.807410
vn 0.766261 -0.574695 0.287348
vn -0.766261 -0.574696 0.287348
vn 0.000001 -0.707108 -0.707106
vn -0.604553 -0.453414 -0.654929
vn 0.040389 -0.969351 0.242336
vn -0.040389 -0.969351 0.242336
vn 0.428572 -0.285716 -0.857142
vn 0.056293 -0.963234 -0.262702
vn -0.781795 -0.504703 -0.366158
vn -0.006388 -0.996525 0.083044
vn 0.581914 -0.727393 -0.363697
vn 0.872872 -0.436435 -0.218218
vn 0.729421 -0.664583 0.162093
vn -0.729421 -0.664583 0.162093
vn 0.332822 -0.939732 0.078311
vn -0.332822 -0.939732 0.078311
vn 0.791554 -0.582025 0.186248
vn -0.791554 -0.582025 0.186248
vn 0.877266 -0.438633 0.194948
vn -0.877266 -0.438633 0.194948
vn 0.910178 -0.411810 -0.044591
vn -0.893156 -0.131239 0.430173
vn 0.033613 -0.941209 -0.336150
vn -0.033613 -0.941209 -0.336150
vn -0.192447 -0.962251 -0.192451
vn 0.135320 -0.969788 -0.202979
vn -0.188143 -0.940722 -0.282215
vn 0.356915 -0.927980 0.107075
vn -0.065511 -0.917171 0.393072
vn 0.124033 -0.992278 0.000000
vn -0.158235 -0.271260 0.949410
vn 0.158235 -0.271260 0.949410
vn -0.646160 -0.084282 0.758534
vn 0.739600 -0.184900 0.647151
vn 0.305142 -0.118119 -0.944953
vn -0.305142 -0.118119 -0.944953
vn 0.052632 -0.947369 -0.315788
vn -0.015963 -0.957704 -0.287312
vn -0.598987 -0.762346 -0.245038
vn 0.448143 -0.844576 -0.293017
vn -0.521445 -0.851690 0.052144
vn 0.286864 -0.952389 -0.103270
vn -0.123882 -0.991059 0.049553
vn 0.123882 -0.991059 0.049553
vn -0.548821 -0.768349 -0.329294
vn 0.548821 -0.768349 -0.329294
vn 0.265484 -0.491144 -0.829636
vn 0.397220 -0.662034 -0.635553
vn -0.418605 -0.697674 -0.581395
vn 0.516784 -0.828805 -0.214515
vn -0.591414 -0.623382 -0.511493
vn 0.588228 -0.800373 -0.115717
vn -0.544021 -0.835465 -0.077718
vn 0.567153 -0.816144 0.110663
vn -0.567153 -0.816144 0.110663
vn 0.528095 -0.821479 0.215147
vn -0.528094 -0.821479 0.215147
vn -0.061286 -0.949920 0.306425
vn -0.406303 -0.568824 0.715093
vn 0.177193 -0.903681 0.389826
vn -0.152410 -0.929701 0.335302
vn -0.012939 -0.983371 0.181147
vn 0.021878 -0.951686 0.306292
vn 0.355267 -0.737860 -0.573888
vn -0.280430 -0.934765 -0.218115
vn 0.296333 -0.931335 -0.211664
vn -0.266680 -0.914326 -0.304777
vn -0.182575 -0.365147 -0.912871
vn 0.182575 -0.365147 -0.912871
vn 0.045478 -0.659431 -0.750388
vn -0.045478 -0.659431 -0.750388
vn -0.320713 -0.908688 -0.267263
vn 0.381002 -0.889001 -0.253999
vn -0.230392 -0.972761 0.025600
vn 0.230393 -0.972761 0.025600
vn -0.053239 -0.931679 0.359361
vn 0.221583 -0.791360 0.569781
vn 0.025208 -0.831785 0.554525
vn -0.025208 -0.831785 0.554525
vn 0.350177 -0.669904 0.654679
vn -0.350177 -0.669904 0.654679
vn 0.498784 -0.685827 0.529958
vn -0.498784 -0.685826 0.529959
vn 0.738201 -0.492132 -0.461374
vn -0.601446 -0.761830 -0.240580
vn 0.806064 -0.588208 -0.065358
vn -0.829186 -0.552789 -0.082918
vn 0.790346 -0.602167 0.112906
vn -0.779987 -0.614535 0.118181
vn -0.404310 0.324774 0.855018
vn 0.694716 0.118249 0.709497
vn -0.846507 0.380102 0.372757
vn 0.855186 0.366508 0.366509
vn -0.215621 0.405367 0.888361
vn 0.215621 0.405367 0.888361
vn 0.587870 0.308576 0.747790
vn -0.587870 0.308576 0.747790
vn 0.350238 0.329992 0.876606
vn -0.350238 0.329992 0.876606
vn 0.285868 0.295397 0.911603
vn -0.278944 0.281652 0.918076
vn 0.898144 0.434526 0.067269
vn -0.898144 0.434526 0.067269
vn 0.595504 0.371473 -0.712308
vn -0.452713 0.514018 -0.728585
vn 0.249041 0.581095 -0.774795
vn -0.440781 0.366284 -0.819481
vn 0.368294 0.636145 -0.677996
vn -0.368294 0.636145 -0.677996
vn 0.171780 0.984869 -0.022904
vn -0.171780 0.984869 -0.022904
vn -0.064999 0.931651 -0.357494
vn 0.064999 0.931651 -0.357494
vn 0.177679 0.065460 -0.981909
vn -0.058475 0.203272 -0.977375
vn 0.134051 0.211502 -0.968141
vn -0.101591 0.241281 -0.965123
vn 0.980181 -0.048048 0.192192
vn -0.608215 0.721282 -0.331399
vn 0.944069 0.273005 0.184939
vn -0.920777 0.361733 0.146009
vn 0.247475 0.968747 -0.016921
vn -0.087930 0.994709 0.053124
vn 0.199158 0.925497 -0.322167
vn -0.199158 0.925497 -0.322167
vn 0.870302 0.119453 -0.477813
vn -0.870302 0.119453 -0.477813
vn 0.918440 0.371525 0.135786
vn -0.920408 0.365241 0.139456
vn 0.924627 0.157607 0.346735
vn -0.924627 0.157607 0.346735
vn 0.907920 0.190370 0.373418
vn -0.907920 0.190371 0.373418
vn 0.991801 -0.030994 0.123975
vn -0.991801 -0.030994 0.123975
vn 0.079745 0.598088 -0.797453
vn -0.079745 0.598089 -0.797452
vn 0.373117 0.799689 -0.470405
vn -0.373117 0.799689 -0.470405
vn 0.330884 0.476723 -0.814402
vn -0.330884 0.476723 -0.814402
vn 0.303090 0.111459 -0.946422
vn -0.265974 0.138263 -0.954013
vn 0.348743 0.116248 -0.929981
vn -0.284209 0.232534 -0.930136
vn 0.956962 0.134120 0.257365
vn -0.956962 0.134120 0.257365
vn 0.861521 -0.378940 -0.337915
vn -0.691648 -0.010171 -0.722163
vn 0.436826 0.898528 -0.042787
vn -0.436826 0.898528 -0.042787
vn 0.112859 -0.226429 0.967467
vn -0.112859 -0.226429 0.967467
vn 0.137320 0.194258 0.971291
vn -0.120927 0.179005 0.976388
vn 0.387556 0.735696 0.555475
vn -0.300033 0.706593 0.640864
vn 0.565950 0.318348 0.760497
vn -0.352189 0.078264 0.932651
vn 0.343167 -0.630260 0.696426
vn 0.094385 -0.736210 0.670139
vn 0.583766 -0.178834 0.791982
vn -0.625483 -0.143789 0.766874
vn 0.715914 0.214346 0.664472
vn -0.690128 0.195935 0.696659
vn 0.590457 0.787973 0.174525
vn -0.590457 0.787973 0.174525
vn 0.058015 0.928240 0.367429
vn -0.714499 0.554644 0.426453
vn 0.595903 0.217424 0.773063
vn -0.675140 0.144673 0.723364
vn 0.690541 -0.133295 0.710905
vn -0.738071 -0.167585 0.653580
vn 0.677195 -0.555627 0.482375
vn -0.776627 -0.533022 0.335766
vn 0.158041 0.267276 0.950572
vn -0.158041 0.267276 0.950572
vn 0.156987 -0.749842 0.642722
vn -0.156987 -0.749842 0.642722
vn -0.168134 0.980627 0.100504
vn 0.168134 0.980627 0.100505
vn 0.023299 0.246579 0.968843
vn -0.041931 -0.926898 0.372965
vn 0.498048 0.280152 0.820648
vn -0.498048 0.280152 0.820648
vn 0.945595 -0.325072 0.013328
vn -0.933361 -0.270975 0.235393
vn 0.996980 -0.017105 0.075751
vn -0.901927 0.206516 0.379314
vn 0.961699 0.231485 0.146796
vn -0.961699 0.231486 0.146796
vn 0.746041 -0.091670 -0.659560
vn -0.746041 -0.091669 -0.659560
vn 0.371878 -0.085001 -0.924382
vn -0.371878 -0.085000 -0.924382
vn 0.387671 -0.182554 -0.903540
vn -0.548020 -0.317275 -0.773958
vn 0.848946 -0.479839 -0.221464
vn -0.499284 -0.159026 -0.851720
vn 0.570582 0.745582 -0.344302
vn -0.570582 0.745582 -0.344303
vn 0.562892 0.783325 -0.263733
vn -0.562892 0.783325 -0.263733
vn 0.105938 0.385661 -0.916539
vn -0.105938 0.385661 -0.916539
vn 0.697614 0.307747 -0.647014
vn -0.697614 0.307746 -0.647014
vn 0.480813 -0.839062 0.254547
vn -0.480812 -0.839063 0.254546
vn 0.503293 -0.862786 0.047932
vn -0.410191 -0.869605 0.274828
vn 0.145938 -0.985080 0.091211
vn -0.145938 -0.985080 0.091211
vn 0.283453 -0.953431 -0.103074
vn -0.283453 -0.953431 -0.103074
vn 0.505826 -0.826594 -0.246743
vn -0.505826 -0.826594 -0.246744
vn 0.624650 -0.663289 -0.412140
vn -0.613244 -0.761743 -0.208997
vn 0.484318 -0.673834 0.558017
vn -0.484319 -0.673834 0.558018
vn -0.269338 -0.485981 0.831433
vn 0.264198 -0.490652 0.830338
vn -0.800021 -0.562980 0.207413
vn 0.800019 -0.562982 0.207412
vn -0.522495 -0.774525 -0.356526
vn 0.522495 -0.774525 -0.356526
vn 0.486190 -0.703005 -0.519041
vn -0.486190 -0.703005 -0.519041
vn 0.714339 -0.562211 -0.416699
vn -0.688357 -0.549730 -0.473245
vn 0.996972 0.067975 -0.037763
vn -0.996972 0.067975 -0.037763
vn -0.197104 -0.928727 0.314031
vn 0.197104 -0.928727 0.314031
vn 0.914237 0.172933 -0.366421
vn -0.887036 0.256563 -0.383852
vn -0.120386 -0.963087 0.240772
vn -0.371135 -0.927837 0.037114
vn 0.023355 -0.098089 0.994904
vn -0.137793 -0.578732 0.803793
vn 0.606788 -0.513435 -0.606789
vn -0.606788 -0.513435 -0.606789
vn 0.580199 -0.791180 0.193399
vn -0.102194 -0.566713 0.817553
vn 0.701335 0.127512 -0.701335
vn -0.701335 0.127513 -0.701334
vn 0.457984 -0.771338 -0.441914
vn -0.457984 -0.771338 -0.441914
vn 0.715512 -0.561637 -0.415459
vn -0.715512 -0.561637 -0.415459
vn 0.827147 0.180170 0.532322
vn -0.827147 0.180170 0.532322
vn 0.900500 0.033351 -0.433574
vn -0.900500 0.033352 -0.433574
vn 0.676753 -0.104116 -0.728811
vn -0.772349 -0.274060 -0.573034
vn 0.797078 -0.085401 -0.597808
vn -0.797078 -0.085401 -0.597808
vn 0.702246 -0.117041 -0.702248
vn -0.702247 -0.117041 -0.702247
vn 0.242338 -0.040389 0.969351
vn -0.242338 -0.040389 0.969351
vn 0.931907 -0.097070 0.349466
vn -0.931907 -0.097070 0.349466
vn 0.624695 0.000000 -0.780869
vn -0.702247 -0.117040 -0.702247
vn -0.109335 -0.140574 0.984015
vn -0.110431 0.000000 0.993884
vn 0.586647 -0.298858 -0.752681
vn -0.661828 -0.374619 -0.649342
vn 0.252880 -0.331904 -0.908786
vn -0.296806 -0.389559 -0.871866
vn -0.822210 0.086549 -0.562566
vn 0.827110 0.338818 -0.448432
vn -0.816911 0.533822 0.218382
vn 0.816909 0.533825 0.218382
vn -0.483417 0.069061 0.872662
vn 0.483416 0.069059 0.872662
vn 0.040373 -0.141306 0.989142
vn -0.040373 -0.141306 0.989142
vn 0.137517 -0.990117 -0.027503
vn -0.137517 -0.990118 -0.027503
vn 0.339982 -0.939953 -0.029998
vn -0.339983 -0.939953 -0.029998
vn 0.236805 -0.970908 0.035521
vn -0.382991 -0.923683 0.011265
vn 0.180460 -0.981252 0.067672
vn -0.180460 -0.981252 0.067673
vn 0.308264 -0.933858 -0.181332
vn -0.328721 -0.732774 0.595806
vn 0.399964 -0.914202 -0.065300
vn -0.399964 -0.914202 -0.065300
vn 0.361834 -0.930427 -0.058153
vn -0.361834 -0.930427 -0.058153
vn 0.071067 -0.994937 -0.071067
vn -0.041065 -0.985562 0.164261
vn -0.298142 -0.596284 0.745357
vn 0.487048 -0.626206 0.608810
vn 0.669312 -0.720798 0.180200
vn -0.669312 -0.720798 0.180199
vn 0.443737 -0.870159 -0.214292
vn -0.443738 -0.870158 -0.214292
vn 0.493214 -0.863574 -0.104784
vn -0.493213 -0.863575 -0.104784
vn 0.525058 -0.827977 0.196896
vn -0.525068 -0.795557 0.302312
vn 0.110453 0.067778 -0.991568
vn -0.073695 0.094551 -0.992789
vn 0.446086 0.084854 -0.890959
vn -0.585489 -0.180151 -0.790410
vn 0.934096 -0.260169 -0.244495
vn -0.934096 -0.260166 -0.244495
vn 0.832821 0.067584 0.549401
vn -0.832821 0.067586 0.549400
vn -0.191998 0.217498 0.956991
vn 0.191998 0.217498 0.956991
vn -0.355407 0.072322 0.931910
vn 0.355407 0.072321 0.931910
vn -0.521508 0.853020 -0.019655
vn 0.521508 0.853020 -0.019655
vn -0.113643 0.992021 -0.054588
vn 0.266747 0.963745 0.006422
vn -0.821852 -0.084053 0.563467
vn 0.821852 -0.084052 0.563467
vn 0.419982 0.878144 -0.229081
vn -0.419982 0.878144 -0.229081
vn -0.570200 0.106521 -0.814571
vn -0.007891 0.402462 -0.915403
usemtl None
s off
f 47/1/1 1/2/1 45/3/1
f 4/4/2 2/5/2 46/6/2
f 45/7/3 3/8/3 43/9/3
f 6/10/4 4/8/4 44/9/4
f 3/11/5 9/12/5 5/13/5
f 8/14/6 10/15/6 6/16/6
f 1/2/7 11/17/7 3/18/7
f 10/19/8 12/20/8 4/4/8
f 11/17/9 13/21/9 9/22/9
f 16/23/10 14/24/10 10/19/10
f 9/12/11 15/25/11 7/26/11
f 18/27/12 16/28/12 8/14/12
f 15/29/13 21/30/13 19/31/13
f 20/31/14 22/30/14 16/29/14
f 13/21/15 23/32/15 21/33/15
f 22/34/16 24/35/16 14/24/16
f 23/32/17 25/36/17 21/33/17
f 28/37/18 26/38/18 22/34/18
f 21/30/19 27/39/19 29/40/19
f 30/40/20 28/39/20 22/30/20
f 27/25/21 33/12/21 31/26/21
f 32/14/22 34/15/22 28/28/22
f 25/36/23 35/41/23 33/42/23
f 34/43/24 36/44/24 26/38/24
f 35/41/25 37/45/25 39/46/25
f 40/47/26 38/48/26 36/44/26
f 33/12/27 39/11/27 41/13/27
f 42/16/28 40/49/28 34/15/28
f 39/50/29 45/7/29 43/9/29
f 44/9/30 46/7/30 40/50/30
f 37/45/31 47/1/31 45/3/31
f 46/6/32 48/51/32 38/48/32
f 47/52/33 37/53/33 51/54/33
f 52/54/34 38/53/34 48/52/34
f 37/55/35 35/56/35 53/57/35
f 54/58/36 36/59/36 38/60/36
f 35/56/37 25/61/37 55/62/37
f 56/63/38 26/64/38 36/59/38
f 25/65/39 23/66/39 57/67/39
f 58/67/40 24/66/40 26/65/40
f 23/66/41 13/68/41 57/67/41
f 60/69/42 14/68/42 58/67/42
f 13/61/43 11/56/43 59/62/43
f 64/58/44 12/59/44 60/63/44
f 11/56/45 1/55/45 63/57/45
f 66/70/46 2/60/46 64/58/46
f 1/71/47 47/52/47 65/72/47
f 50/73/48 48/52/48 66/72/48
f 61/74/49 65/75/49 49/76/49
f 50/77/50 66/78/50 62/79/50
f 63/80/51 65/75/51 61/74/51
f 62/79/52 66/78/52 64/81/52
f 61/74/53 59/82/53 63/80/53
f 64/81/54 60/83/54 62/79/54
f 61/74/55 57/84/55 59/82/55
f 60/83/56 58/85/56 62/79/56
f 61/74/57 55/86/57 57/84/57
f 58/85/58 56/87/58 62/79/58
f 61/74/59 53/88/59 55/86/59
f 56/87/60 54/89/60 62/79/60
f 61/74/61 51/90/61 53/88/61
f 54/89/62 52/91/62 62/79/62
f 61/74/63 49/76/63 51/90/63
f 52/91/64 50/77/64 62/79/64
f 89/92/65 174/93/65 176/94/65
f 176/94/66 175/95/66 90/96/66
f 87/97/67 172/98/67 174/93/67
f 175/95/68 173/99/68 88/100/68
f 85/101/69 170/102/69 87/103/69
f 173/104/70 171/105/70 88/106/70
f 83/107/71 168/108/71 85/109/71
f 171/110/72 169/108/72 86/109/72
f 81/111/73 166/112/73 83/107/73
f 169/108/74 167/112/74 84/107/74
f 79/113/75 92/114/75 164/115/75
f 147/116/76 93/117/76 165/118/76
f 92/114/77 94/119/77 148/120/77
f 149/121/78 95/122/78 93/117/78
f 94/123/79 96/124/79 148/125/79
f 151/126/80 97/124/80 149/125/80
f 96/124/81 98/127/81 152/128/81
f 153/128/82 99/127/82 97/124/82
f 98/129/83 100/130/83 154/131/83
f 155/132/84 101/133/84 99/134/84
f 100/135/85 102/136/85 156/137/85
f 157/138/86 103/139/86 101/140/86
f 102/141/87 104/142/87 156/143/87
f 159/144/88 105/142/88 157/143/88
f 104/145/89 106/146/89 160/147/89
f 161/148/90 107/149/90 105/150/90
f 106/151/91 108/152/91 162/153/91
f 163/153/92 109/152/92 107/151/92
f 108/154/93 67/155/93 68/156/93
f 68/156/94 67/155/94 109/157/94
f 110/158/95 128/159/95 160/147/95
f 161/148/96 129/160/96 111/161/96
f 128/159/97 179/162/97 160/147/97
f 159/163/98 180/164/98 161/148/98
f 126/165/99 156/166/99 158/167/99
f 159/163/100 157/168/100 127/169/100
f 124/170/101 154/131/101 156/166/101
f 157/168/102 155/132/102 125/171/102
f 122/172/103 152/173/103 154/131/103
f 155/132/104 153/174/104 123/175/104
f 120/176/105 150/177/105 152/173/105
f 153/174/106 151/178/106 121/179/106
f 118/180/107 148/181/107 150/177/107
f 151/178/108 149/182/108 119/183/108
f 116/184/109 146/185/109 118/180/109
f 149/182/110 147/186/110 119/183/110
f 114/187/111 164/188/111 116/184/111
f 147/186/112 165/189/112 117/190/112
f 114/187/113 181/191/113 164/188/113
f 177/192/114 182/193/114 165/189/114
f 110/158/115 162/194/115 68/156/115
f 68/156/116 163/195/116 111/161/116
f 112/196/117 68/156/117 183/197/117
f 178/198/118 68/156/118 184/199/118
f 177/192/119 181/191/119 183/197/119
f 184/199/120 182/193/120 177/192/120
f 135/200/121 137/201/121 174/202/121
f 176/203/122 137/201/122 175/204/122
f 133/205/123 135/200/123 172/206/123
f 175/204/124 136/207/124 173/104/124
f 131/208/125 133/205/125 172/206/125
f 173/104/126 134/209/126 132/210/126
f 166/211/127 187/212/127 168/213/127
f 186/214/128 188/215/128 169/216/128
f 131/208/129 170/102/129 185/217/129
f 169/216/130 171/105/130 186/214/130
f 144/218/131 190/219/131 189/220/131
f 189/220/132 190/219/132 145/221/132
f 185/217/133 187/212/133 189/220/133
f 189/220/134 188/215/134 186/214/134
f 130/222/135 131/208/135 185/217/135
f 186/214/136 132/210/136 130/222/136
f 142/223/137 193/224/137 144/225/137
f 192/226/138 194/224/138 145/225/138
f 140/227/139 195/228/139 193/224/139
f 194/224/140 196/228/140 141/227/140
f 139/229/141 197/230/141 195/231/141
f 196/232/142 198/233/142 139/229/142
f 138/234/143 71/235/143 197/236/143
f 198/236/144 71/235/144 138/234/144
f 190/229/145 144/237/145 191/238/145
f 192/239/146 145/240/146 190/229/146
f 70/241/147 191/242/147 206/243/147
f 207/244/148 192/245/148 70/241/148
f 71/235/149 199/246/149 197/236/149
f 201/247/150 199/246/150 198/236/150
f 197/230/151 200/248/151 195/231/151
f 203/249/152 201/250/152 196/232/152
f 195/228/153 202/251/153 204/252/153
f 205/252/154 203/251/154 196/228/154
f 193/253/155 204/254/155 191/238/155
f 207/255/156 205/256/156 192/239/156
f 199/257/157 204/258/157 202/259/157
f 203/260/158 205/261/158 199/257/158
f 199/257/159 208/262/159 204/258/159
f 207/244/160 208/262/160 205/261/160
f 139/263/161 140/264/161 177/192/161
f 165/189/162 141/265/162 177/192/162
f 140/264/163 142/266/163 164/188/163
f 212/267/164 143/268/164 165/189/164
f 142/266/165 144/218/165 213/269/165
f 214/270/166 145/221/166 143/268/166
f 144/218/167 187/212/167 166/211/167
f 167/271/168 188/215/168 145/221/168
f 81/111/169 209/272/169 213/273/169
f 214/273/170 210/272/170 82/111/170
f 209/272/171 215/274/171 211/275/171
f 212/275/172 216/274/172 210/272/172
f 79/276/173 164/277/173 215/274/173
f 212/275/174 165/277/174 216/274/174
f 131/208/175 130/222/175 72/278/175
f 72/278/176 130/222/176 132/210/176
f 133/205/177 131/208/177 220/279/177
f 223/280/178 132/210/178 221/281/178
f 135/200/179 133/205/179 218/282/179
f 221/281/180 134/209/180 219/283/180
f 137/201/181 135/200/181 217/284/181
f 219/283/182 136/207/182 217/284/182
f 217/285/183 218/286/183 229/287/183
f 230/288/184 219/289/184 217/285/184
f 218/286/185 220/290/185 229/287/185
f 228/291/186 221/292/186 230/288/186
f 220/293/187 222/294/187 227/295/187
f 226/296/188 223/294/188 228/295/188
f 222/297/189 72/298/189 224/299/189
f 224/299/190 72/298/190 223/300/190
f 224/301/191 231/302/191 225/303/191
f 230/304/192 231/302/192 226/305/192
f 225/303/193 229/306/193 227/307/193
f 228/308/194 230/304/194 226/305/194
f 183/197/195 181/191/195 232/309/195
f 235/310/196 182/193/196 233/311/196
f 112/196/197 183/197/197 254/312/197
f 233/311/198 184/199/198 255/313/198
f 110/158/199 112/196/199 254/312/199
f 255/313/200 113/314/200 111/161/200
f 181/191/201 114/187/201 252/315/201
f 253/316/202 115/23/202 182/193/202
f 114/25/203 116/317/203 252/318/203
f 251/319/204 117/320/204 253/321/204
f 116/184/205 118/180/205 250/322/205
f 249/323/206 119/183/206 251/324/206
f 118/180/207 120/176/207 248/325/207
f 247/326/208 121/179/208 249/323/208
f 120/176/209 122/172/209 246/327/209
f 245/328/210 123/175/210 247/326/210
f 122/172/211 124/170/211 242/329/211
f 243/330/212 125/171/212 123/175/212
f 124/170/213 126/165/213 240/331/213
f 241/332/214 127/169/214 125/171/214
f 126/165/215 179/162/215 240/331/215
f 237/333/216 180/164/216 241/332/216
f 179/162/217 128/159/217 236/334/217
f 239/335/218 129/160/218 237/333/218
f 128/159/219 110/158/219 238/336/219
f 257/337/220 111/161/220 239/335/220
f 238/336/221 256/338/221 276/339/221
f 259/340/222 257/337/222 277/341/222
f 236/334/223 238/336/223 278/342/223
f 277/341/224 239/335/224 279/343/224
f 240/331/225 236/334/225 278/342/225
f 279/343/226 237/333/226 241/332/226
f 242/344/227 240/345/227 274/346/227
f 275/347/228 241/348/228 243/349/228
f 244/350/229 242/329/229 270/351/229
f 273/352/230 243/330/230 271/353/230
f 246/327/231 244/350/231 270/351/231
f 271/353/232 245/328/232 247/326/232
f 248/325/233 246/327/233 266/354/233
f 269/355/234 247/326/234 267/356/234
f 250/322/235 248/325/235 266/354/235
f 267/356/236 249/323/236 251/324/236
f 252/315/237 250/322/237 264/357/237
f 265/358/238 251/324/238 253/316/238
f 234/359/239 252/315/239 280/360/239
f 263/361/240 253/316/240 281/362/240
f 256/363/241 254/364/241 258/365/241
f 261/366/242 255/364/242 259/365/242
f 254/364/243 232/367/243 260/366/243
f 283/368/244 233/367/244 261/366/244
f 232/367/245 234/369/245 282/368/245
f 281/370/246 235/369/246 283/368/246
f 67/229/247 108/371/247 73/372/247
f 285/373/248 109/374/248 73/372/248
f 108/152/249 106/151/249 284/375/249
f 287/376/250 107/151/250 285/375/250
f 106/377/251 104/378/251 288/379/251
f 289/380/252 105/381/252 107/382/252
f 104/378/253 102/136/253 290/383/253
f 291/384/254 103/139/254 105/381/254
f 102/136/255 100/135/255 292/385/255
f 293/386/256 101/140/256 103/139/256
f 100/135/257 98/387/257 292/385/257
f 295/388/258 99/389/258 293/386/258
f 98/127/259 96/124/259 296/390/259
f 297/390/260 97/124/260 99/127/260
f 96/391/261 94/119/261 296/392/261
f 299/393/262 95/122/262 297/394/262
f 94/119/263 92/114/263 298/395/263
f 301/396/264 93/117/264 299/393/264
f 308/397/265 309/398/265 328/399/265
f 329/400/266 309/398/266 308/397/266
f 307/401/267 308/397/267 338/402/267
f 339/403/268 308/397/268 307/401/268
f 306/404/269 307/401/269 336/405/269
f 337/406/270 307/401/270 306/404/270
f 89/92/271 91/407/271 340/408/271
f 306/409/272 91/407/272 341/410/272
f 87/97/273 89/92/273 334/411/273
f 341/410/274 90/96/274 335/412/274
f 85/109/275 87/413/275 330/414/275
f 335/415/276 88/413/276 331/414/276
f 83/107/277 85/109/277 332/416/277
f 331/414/278 86/109/278 333/416/278
f 330/417/279 336/405/279 332/418/279
f 339/403/280 337/406/280 333/419/280
f 330/417/281 334/420/281 340/421/281
f 341/422/282 335/423/282 331/424/282
f 326/425/283 332/416/283 338/426/283
f 339/426/284 333/416/284 327/425/284
f 81/111/285 83/107/285 326/425/285
f 333/416/286 84/107/286 327/425/286
f 209/272/287 342/427/287 344/428/287
f 345/428/288 343/427/288 210/272/288
f 81/111/289 326/425/289 342/427/289
f 343/427/290 327/425/290 82/111/290
f 79/276/291 215/274/291 344/428/291
f 345/428/292 216/274/292 80/276/292
f 79/113/293 346/429/293 300/430/293
f 301/396/294 347/431/294 80/432/294
f 77/433/295 324/434/295 352/435/295
f 353/436/296 325/437/296 77/433/296
f 304/438/297 352/439/297 350/440/297
f 351/441/298 353/442/298 304/438/298
f 78/443/299 350/440/299 305/444/299
f 349/445/300 351/441/300 305/444/300
f 305/444/301 348/446/301 309/447/301
f 329/448/302 349/445/302 309/447/302
f 326/425/303 328/449/303 348/450/303
f 349/450/304 329/449/304 327/425/304
f 296/390/305 298/451/305 310/452/305
f 319/453/306 299/451/306 311/452/306
f 76/454/307 316/455/307 324/434/307
f 325/437/308 317/456/308 76/454/308
f 302/457/309 358/458/309 356/459/309
f 357/460/310 359/461/310 302/457/310
f 303/462/311 356/459/311 75/463/311
f 355/464/312 357/460/312 75/463/312
f 75/465/313 354/466/313 76/454/313
f 317/456/314 355/467/314 76/454/314
f 292/385/315 294/468/315 364/469/315
f 363/470/316 295/388/316 365/471/316
f 364/469/317 362/472/317 366/473/317
f 369/474/318 363/470/318 367/475/318
f 366/473/319 368/476/319 372/477/319
f 371/478/320 369/474/320 373/479/320
f 372/480/321 370/481/321 374/482/321
f 377/483/322 371/481/322 375/482/322
f 314/484/323 378/485/323 374/486/323
f 375/487/324 379/488/324 315/489/324
f 316/455/325 354/466/325 378/485/325
f 375/487/326 355/467/326 379/488/326
f 354/490/327 356/459/327 374/491/327
f 373/479/328 357/460/328 375/492/328
f 356/493/329 358/494/329 372/480/329
f 367/495/330 359/494/330 373/480/330
f 358/494/331 360/496/331 366/495/331
f 365/497/332 361/496/332 367/495/332
f 290/383/333 292/385/333 364/469/333
f 365/471/334 293/386/334 291/384/334
f 74/498/335 360/499/335 358/500/335
f 359/501/336 361/502/336 74/498/336
f 284/503/337 286/504/337 288/505/337
f 289/506/338 287/507/338 285/508/338
f 284/509/339 290/383/339 74/510/339
f 361/511/340 291/384/340 74/510/340
f 73/512/341 284/503/341 74/498/341
f 74/498/342 285/508/342 73/512/342
f 294/513/343 296/390/343 310/452/343
f 311/452/344 297/390/344 295/513/344
f 310/452/345 312/514/345 362/515/345
f 369/516/346 313/514/346 363/515/346
f 312/514/347 382/517/347 368/516/347
f 371/481/348 383/517/348 369/516/348
f 314/518/349 376/483/349 370/481/349
f 371/481/350 377/483/350 315/518/350
f 348/450/351 350/519/351 386/520/351
f 387/520/352 351/519/352 349/450/352
f 318/521/353 384/522/353 386/523/353
f 387/524/354 385/525/354 319/526/354
f 298/395/355 300/430/355 318/521/355
f 385/525/356 301/396/356 319/526/356
f 300/430/357 344/527/357 384/522/357
f 343/528/358 345/529/358 385/525/358
f 342/427/359 348/450/359 384/530/359
f 385/530/360 349/450/360 343/427/360
f 300/531/361 346/532/361 344/533/361
f 345/534/362 347/535/362 301/536/362
f 314/484/363 322/537/363 380/538/363
f 381/539/364 323/540/364 315/489/364
f 316/455/365 378/485/365 380/538/365
f 381/539/366 379/488/366 317/456/366
f 320/541/367 386/523/367 380/542/367
f 381/543/368 387/524/368 321/544/368
f 350/519/369 352/545/369 380/546/369
f 381/546/370 353/545/370 351/519/370
f 324/434/371 380/538/371 352/435/371
f 353/436/372 381/539/372 325/437/372
f 400/547/373 388/548/373 414/549/373
f 415/550/374 389/551/374 401/552/374
f 400/547/375 402/553/375 398/554/375
f 405/555/376 403/556/376 399/557/376
f 398/558/377 404/559/377 406/560/377
f 407/561/378 405/562/378 399/563/378
f 396/564/379 406/560/379 408/565/379
f 409/566/380 407/567/380 397/568/380
f 394/569/381 408/565/381 410/570/381
f 411/571/382 409/566/382 395/572/382
f 392/573/383 410/574/383 390/575/383
f 413/576/384 411/571/384 391/577/384
f 410/578/385 420/579/385 418/580/385
f 419/581/386 421/582/386 411/583/386
f 408/584/387 422/585/387 410/578/387
f 421/582/388 423/586/388 411/583/388
f 406/587/389 424/588/389 422/589/389
f 423/589/390 425/588/390 407/587/390
f 404/590/391 426/591/391 424/592/391
f 425/593/392 427/594/392 405/555/392
f 402/553/393 428/595/393 426/591/393
f 427/594/394 429/596/394 403/556/394
f 402/597/395 414/598/395 428/599/395
f 417/600/396 415/598/396 429/599/396
f 318/453/397 320/601/397 444/602/397
f 445/602/398 321/601/398 319/453/398
f 320/603/399 390/575/399 412/604/399
f 413/576/400 391/577/400 321/605/400
f 310/452/401 318/453/401 312/514/401
f 443/606/402 319/453/402 313/514/402
f 382/607/403 430/608/403 388/548/403
f 415/550/404 431/609/404 389/551/404
f 412/610/405 418/580/405 444/611/405
f 441/612/406 419/581/406 445/613/406
f 438/614/407 446/615/407 444/616/407
f 445/617/408 447/618/408 439/619/408
f 434/620/409 446/615/409 436/621/409
f 439/619/410 447/618/410 437/622/410
f 432/623/411 448/624/411 446/625/411
f 447/625/412 449/624/412 433/623/412
f 430/608/413 448/626/413 432/627/413
f 433/628/414 449/629/414 431/609/414
f 414/549/415 430/608/415 450/630/415
f 451/631/416 431/609/416 415/550/416
f 312/514/417 448/624/417 430/632/417
f 431/632/418 449/624/418 313/514/418
f 312/514/419 442/606/419 446/625/419
f 447/625/420 443/606/420 313/514/420
f 442/606/421 444/602/421 446/625/421
f 447/625/422 445/602/422 443/606/422
f 416/600/423 450/633/423 476/634/423
f 453/635/424 451/633/424 477/634/424
f 450/633/425 432/623/425 462/636/425
f 463/636/426 433/623/426 451/633/426
f 432/637/427 434/638/427 462/639/427
f 461/640/428 435/641/428 463/642/428
f 434/638/429 436/643/429 458/644/429
f 459/645/430 437/646/430 435/641/430
f 436/647/431 438/648/431 456/649/431
f 457/649/432 439/648/432 437/647/432
f 438/650/433 440/651/433 456/652/433
f 455/653/434 441/612/434 457/654/434
f 440/651/435 418/580/435 454/655/435
f 475/656/436 419/581/436 455/653/436
f 428/657/437 416/658/437 464/659/437
f 477/660/438 417/661/438 465/662/438
f 426/663/439 428/657/439 466/664/439
f 465/662/440 429/665/440 467/666/440
f 424/588/441 426/667/441 468/668/441
f 467/669/442 427/667/442 469/668/442
f 422/589/443 424/588/443 468/668/443
f 469/668/444 425/588/444 423/589/444
f 420/579/445 422/585/445 470/670/445
f 471/671/446 423/586/446 421/582/446
f 418/580/447 420/579/447 472/672/447
f 473/673/448 421/582/448 419/581/448
f 458/674/449 456/675/449 480/676/449
f 481/677/450 457/678/450 459/679/450
f 478/680/451 480/676/451 482/681/451
f 483/682/452 481/677/452 479/683/452
f 484/684/453 482/681/453 486/685/453
f 489/686/454 483/682/454 487/687/454
f 486/685/455 488/688/455 490/689/455
f 491/690/456 489/686/456 487/687/456
f 464/691/457 476/692/457 492/693/457
f 487/687/458 477/694/458 493/695/458
f 452/696/459 484/684/459 486/685/459
f 487/687/460 485/697/460 453/698/460
f 452/696/461 462/699/461 478/680/461
f 479/683/462 463/700/462 453/698/462
f 458/674/463 478/680/463 460/701/463
f 463/700/464 479/683/464 461/702/464
f 454/655/465 474/703/465 456/652/465
f 481/704/466 475/656/466 457/654/466
f 472/705/467 482/681/467 480/676/467
f 481/677/468 483/682/468 473/706/468
f 470/707/469 488/688/469 482/681/469
f 483/682/470 489/686/470 471/708/470
f 468/709/471 490/710/471 488/711/471
f 489/686/472 491/690/472 469/712/472
f 466/713/473 492/693/473 468/714/473
f 491/690/474 493/695/474 469/712/474
f 464/691/475 492/693/475 466/713/475
f 467/715/476 493/695/476 465/716/476
f 392/717/477 390/718/477 502/719/477
f 505/720/478 391/721/478 503/722/478
f 394/723/479 392/724/479 500/725/479
f 503/722/480 393/726/480 501/727/480
f 396/728/481 394/729/481 500/730/481
f 501/730/482 395/729/482 397/728/482
f 398/731/483 396/728/483 498/732/483
f 499/732/484 397/728/484 399/731/484
f 400/733/485 398/734/485 496/735/485
f 497/736/486 399/737/486 401/738/486
f 388/739/487 400/733/487 494/740/487
f 495/741/488 401/738/488 389/742/488
f 494/743/489 502/744/489 504/745/489
f 505/746/490 503/747/490 495/748/490
f 494/743/491 496/749/491 502/744/491
f 501/750/492 497/751/492 503/752/492
f 496/753/493 498/754/493 500/755/493
f 501/750/494 499/756/494 497/751/494
f 314/518/495 382/517/495 388/757/495
f 389/757/496 383/517/496 315/518/496
f 314/484/497 506/758/497 504/745/497
f 505/746/498 507/759/498 315/489/498
f 320/541/499 322/760/499 390/718/499
f 505/720/500 323/761/500 391/721/500
f 1/2/501 3/18/501 45/3/501
f 2/5/502 48/51/502 46/6/502
f 3/8/503 5/10/503 43/9/503
f 4/8/504 46/7/504 44/9/504
f 9/12/505 7/26/505 5/13/505
f 10/15/506 4/49/506 6/16/506
f 11/17/507 9/22/507 3/18/507
f 12/20/508 2/5/508 4/4/508
f 13/21/509 15/187/509 9/22/509
f 14/24/510 12/20/510 10/19/510
f 15/25/511 17/762/511 7/26/511
f 16/28/512 10/15/512 8/14/512
f 17/763/513 15/29/513 19/31/513
f 18/763/514 20/31/514 16/29/514
f 15/187/515 13/21/515 21/33/515
f 16/23/516 22/34/516 14/24/516
f 25/36/517 27/764/517 21/33/517
f 26/38/518 24/35/518 22/34/518
f 19/31/519 21/30/519 29/40/519
f 20/31/520 30/40/520 22/30/520
f 29/762/521 27/25/521 31/26/521
f 30/27/522 32/14/522 28/28/522
f 27/764/523 25/36/523 33/42/523
f 28/37/524 34/43/524 26/38/524
f 33/42/525 35/41/525 39/46/525
f 34/43/526 40/47/526 36/44/526
f 31/26/527 33/12/527 41/13/527
f 32/14/528 42/16/528 34/15/528
f 41/765/529 39/50/529 43/9/529
f 42/765/530 44/9/530 40/50/530
f 39/46/531 37/45/531 45/3/531
f 40/47/532 46/6/532 38/48/532
f 49/73/533 47/52/533 51/54/533
f 50/73/534 52/54/534 48/52/534
f 51/766/535 37/55/535 53/57/535
f 52/70/536 54/58/536 38/60/536
f 53/57/537 35/56/537 55/62/537
f 54/58/538 56/63/538 36/59/538
f 55/767/539 25/65/539 57/67/539
f 56/767/540 58/67/540 26/65/540
f 13/68/541 59/69/541 57/67/541
f 14/68/542 24/66/542 58/67/542
f 11/56/543 63/57/543 59/62/543
f 12/59/544 14/64/544 60/63/544
f 1/55/545 65/766/545 63/57/545
f 2/60/546 12/59/546 64/58/546
f 47/52/547 49/73/547 65/72/547
f 48/52/548 2/71/548 66/72/548
f 91/407/549 89/92/549 176/94/549
f 91/407/550 176/94/550 90/96/550
f 89/92/551 87/97/551 174/93/551
f 90/96/552 175/95/552 88/100/552
f 170/102/553 172/206/553 87/103/553
f 171/105/554 86/768/554 88/106/554
f 168/108/555 170/110/555 85/109/555
f 169/108/556 84/107/556 86/109/556
f 166/112/557 168/108/557 83/107/557
f 167/112/558 82/111/558 84/107/558
f 92/114/559 146/769/559 164/115/559
f 93/117/560 80/432/560 165/118/560
f 146/769/561 92/114/561 148/120/561
f 147/116/562 149/121/562 93/117/562
f 96/124/563 150/126/563 148/125/563
f 97/124/564 95/123/564 149/125/564
f 150/126/565 96/124/565 152/128/565
f 151/126/566 153/128/566 97/124/566
f 152/173/567 98/129/567 154/131/567
f 153/174/568 155/132/568 99/134/568
f 154/770/569 100/135/569 156/137/569
f 155/771/570 157/138/570 101/140/570
f 104/142/571 158/144/571 156/143/571
f 105/142/572 103/141/572 157/143/572
f 158/167/573 104/145/573 160/147/573
f 159/163/574 161/148/574 105/150/574
f 160/772/575 106/151/575 162/153/575
f 161/772/576 163/153/576 107/151/576
f 162/194/577 108/154/577 68/156/577
f 163/195/578 68/156/578 109/157/578
f 162/194/579 110/158/579 160/147/579
f 163/195/580 161/148/580 111/161/580
f 179/162/581 158/167/581 160/147/581
f 180/164/582 129/160/582 161/148/582
f 179/162/583 126/165/583 158/167/583
f 180/164/584 159/163/584 127/169/584
f 126/165/585 124/170/585 156/166/585
f 127/169/586 157/168/586 125/171/586
f 124/170/587 122/172/587 154/131/587
f 125/171/588 155/132/588 123/175/588
f 122/172/589 120/176/589 152/173/589
f 123/175/590 153/174/590 121/179/590
f 120/176/591 118/180/591 150/177/591
f 121/179/592 151/178/592 119/183/592
f 146/185/593 148/181/593 118/180/593
f 147/186/594 117/190/594 119/183/594
f 164/188/595 146/185/595 116/184/595
f 165/189/596 115/23/596 117/190/596
f 181/191/597 177/192/597 164/188/597
f 182/193/598 115/23/598 165/189/598
f 112/196/599 110/158/599 68/156/599
f 113/314/600 68/156/600 111/161/600
f 68/156/601 178/198/601 183/197/601
f 68/156/602 113/314/602 184/199/602
f 178/198/603 177/192/603 183/197/603
f 178/198/604 184/199/604 177/192/604
f 137/201/605 176/203/605 174/202/605
f 137/201/606 136/207/606 175/204/606
f 135/200/607 174/202/607 172/206/607
f 136/207/608 134/209/608 173/104/608
f 170/102/609 131/208/609 172/206/609
f 171/105/610 173/104/610 132/210/610
f 187/212/611 185/217/611 168/213/611
f 188/215/612 167/271/612 169/216/612
f 170/102/613 168/213/613 185/217/613
f 171/105/614 132/210/614 186/214/614
f 187/212/615 144/218/615 189/220/615
f 188/215/615 189/220/615 145/221/615
f 69/773/616 185/217/616 189/220/616
f 69/773/617 189/220/617 186/214/617
f 69/773/618 130/222/618 185/217/618
f 69/773/618 186/214/618 130/222/618
f 193/224/619 191/226/619 144/225/619
f 194/224/620 143/223/620 145/225/620
f 142/223/621 140/227/621 193/224/621
f 143/223/622 194/224/622 141/227/622
f 140/774/623 139/229/623 195/231/623
f 141/775/624 196/232/624 139/229/624
f 139/776/625 138/234/625 197/236/625
f 139/776/626 198/236/626 138/234/626
f 70/777/627 190/229/627 191/238/627
f 70/777/628 192/239/628 190/229/628
f 208/262/629 70/241/629 206/243/629
f 208/262/630 207/244/630 70/241/630
f 199/246/631 200/247/631 197/236/631
f 199/246/632 71/235/632 198/236/632
f 200/248/633 202/778/633 195/231/633
f 201/250/634 198/233/634 196/232/634
f 193/224/635 195/228/635 204/252/635
f 194/224/636 205/252/636 196/228/636
f 204/254/637 206/779/637 191/238/637
f 205/256/638 194/780/638 192/239/638
f 200/781/639 199/257/639 202/259/639
f 201/782/640 203/260/640 199/257/640
f 208/262/641 206/243/641 204/258/641
f 208/262/642 199/257/642 205/261/642
f 140/264/643 164/188/643 177/192/643
f 141/265/644 139/263/644 177/192/644
f 142/266/645 211/783/645 164/188/645
f 143/268/646 141/265/646 165/189/646
f 211/783/647 142/266/647 213/269/647
f 212/267/648 214/270/648 143/268/648
f 213/269/649 144/218/649 166/211/649
f 214/270/650 167/271/650 145/221/650
f 166/112/651 81/111/651 213/273/651
f 167/112/652 214/273/652 82/111/652
f 213/273/653 209/272/653 211/275/653
f 214/273/654 212/275/654 210/272/654
f 164/277/655 211/275/655 215/274/655
f 165/277/656 80/276/656 216/274/656
f 222/784/657 131/208/657 72/278/657
f 223/280/658 72/278/658 132/210/658
f 131/208/659 222/784/659 220/279/659
f 132/210/660 134/209/660 221/281/660
f 133/205/661 220/279/661 218/282/661
f 134/209/662 136/207/662 219/283/662
f 135/200/663 218/282/663 217/284/663
f 136/207/664 137/201/664 217/284/664
f 231/785/665 217/285/665 229/287/665
f 231/785/666 230/288/666 217/285/666
f 220/290/667 227/786/667 229/287/667
f 221/292/668 219/289/668 230/288/668
f 222/294/187 225/296/187 227/295/187
f 223/294/188 221/293/188 228/295/188
f 225/787/669 222/297/669 224/299/669
f 226/788/670 224/299/670 223/300/670
f 231/302/671 229/306/671 225/303/671
f 231/302/672 224/301/672 226/305/672
f 181/191/673 234/359/673 232/309/673
f 182/193/674 184/199/674 233/311/674
f 183/197/675 232/309/675 254/312/675
f 184/199/676 113/314/676 255/313/676
f 256/338/677 110/158/677 254/312/677
f 257/337/678 255/313/678 111/161/678
f 234/359/679 181/191/679 252/315/679
f 235/310/680 253/316/680 182/193/680
f 116/317/204 250/789/204 252/318/204
f 117/320/681 115/28/681 253/321/681
f 118/180/682 248/325/682 250/322/682
f 119/183/683 117/190/683 251/324/683
f 120/176/684 246/327/684 248/325/684
f 121/179/685 119/183/685 249/323/685
f 122/172/686 244/350/686 246/327/686
f 123/175/687 121/179/687 247/326/687
f 244/350/688 122/172/688 242/329/688
f 245/328/689 243/330/689 123/175/689
f 242/329/690 124/170/690 240/331/690
f 243/330/691 241/332/691 125/171/691
f 179/162/692 236/334/692 240/331/692
f 180/164/693 127/169/693 241/332/693
f 128/159/694 238/336/694 236/334/694
f 129/160/695 180/164/695 237/333/695
f 110/158/696 256/338/696 238/336/696
f 111/161/697 129/160/697 239/335/697
f 256/338/698 258/790/698 276/339/698
f 257/337/699 239/335/699 277/341/699
f 238/336/700 276/339/700 278/342/700
f 239/335/701 237/333/701 279/343/701
f 274/791/702 240/331/702 278/342/702
f 275/792/703 279/343/703 241/332/703
f 272/793/704 242/344/704 274/346/704
f 273/794/705 275/347/705 243/349/705
f 242/329/706 272/795/706 270/351/706
f 243/330/707 245/328/707 271/353/707
f 268/796/708 246/327/708 270/351/708
f 269/355/709 271/353/709 247/326/709
f 246/327/710 268/796/710 266/354/710
f 247/326/711 249/323/711 267/356/711
f 264/357/712 250/322/712 266/354/712
f 265/358/713 267/356/713 251/324/713
f 262/797/714 252/315/714 264/357/714
f 263/361/715 265/358/715 253/316/715
f 252/315/716 262/797/716 280/360/716
f 253/316/717 235/310/717 281/362/717
f 254/364/718 260/366/718 258/365/718
f 255/364/719 257/363/719 259/365/719
f 232/367/720 282/368/720 260/366/720
f 233/367/721 255/364/721 261/366/721
f 234/369/722 280/370/722 282/368/722
f 235/369/723 233/367/723 283/368/723
f 108/371/724 284/509/724 73/372/724
f 109/374/725 67/229/725 73/372/725
f 106/151/726 286/376/726 284/375/726
f 107/151/727 109/152/727 285/375/727
f 286/798/728 106/377/728 288/379/728
f 287/799/729 289/380/729 107/382/729
f 288/379/730 104/378/730 290/383/730
f 289/380/731 291/384/731 105/381/731
f 290/383/732 102/136/732 292/385/732
f 291/384/733 293/386/733 103/139/733
f 98/387/734 294/468/734 292/385/734
f 99/389/735 101/140/735 293/386/735
f 294/513/736 98/127/736 296/390/736
f 295/513/737 297/390/737 99/127/737
f 94/119/738 298/395/738 296/392/738
f 95/122/739 97/800/739 297/394/739
f 92/114/740 300/430/740 298/395/740
f 93/117/741 95/122/741 299/393/741
f 338/402/742 308/397/742 328/399/742
f 339/403/743 329/400/743 308/397/743
f 336/405/744 307/401/744 338/402/744
f 337/406/745 339/403/745 307/401/745
f 340/421/746 306/404/746 336/405/746
f 341/422/747 337/406/747 306/404/747
f 91/407/748 306/409/748 340/408/748
f 91/407/749 90/96/749 341/410/749
f 89/92/750 340/408/750 334/411/750
f 90/96/751 88/100/751 335/412/751
f 87/413/752 334/415/752 330/414/752
f 88/413/753 86/109/753 331/414/753
f 85/109/754 330/414/754 332/416/754
f 86/109/755 84/107/755 333/416/755
f 336/405/756 338/402/756 332/418/756
f 337/406/757 331/424/757 333/419/757
f 336/405/758 330/417/758 340/421/758
f 337/406/759 341/422/759 331/424/759
f 328/449/760 326/425/760 338/426/760
f 329/449/761 339/426/761 327/425/761
f 83/107/762 332/416/762 326/425/762
f 84/107/763 82/111/763 327/425/763
f 215/274/764 209/272/764 344/428/764
f 216/274/765 345/428/765 210/272/765
f 209/272/766 81/111/766 342/427/766
f 210/272/767 343/427/767 82/111/767
f 346/801/768 79/276/768 344/428/768
f 347/801/769 345/428/769 80/276/769
f 92/114/770 79/113/770 300/430/770
f 93/117/771 301/396/771 80/432/771
f 304/802/772 77/433/772 352/435/772
f 304/802/773 353/436/773 77/433/773
f 78/443/774 304/438/774 350/440/774
f 78/443/775 351/441/775 304/438/775
f 350/440/776 348/446/776 305/444/776
f 351/441/777 78/443/777 305/444/777
f 348/446/778 328/803/778 309/447/778
f 349/445/779 305/444/779 309/447/779
f 342/427/780 326/425/780 348/450/780
f 343/427/781 349/450/781 327/425/781
f 298/451/782 318/453/782 310/452/782
f 299/451/783 297/390/783 311/452/783
f 77/433/784 76/454/784 324/434/784
f 77/433/785 325/437/785 76/454/785
f 303/462/786 302/457/786 356/459/786
f 303/462/787 357/460/787 302/457/787
f 356/459/788 354/490/788 75/463/788
f 357/460/789 303/462/789 75/463/789
f 354/466/790 316/455/790 76/454/790
f 355/467/791 75/465/791 76/454/791
f 294/468/792 362/472/792 364/469/792
f 295/388/793 293/386/793 365/471/793
f 362/472/794 368/476/794 366/473/794
f 363/470/795 365/471/795 367/475/795
f 368/476/796 370/804/796 372/477/796
f 369/474/797 367/475/797 373/479/797
f 370/481/798 376/483/798 374/482/798
f 371/481/799 373/480/799 375/482/799
f 376/805/800 314/484/800 374/486/800
f 377/806/801 375/487/801 315/489/801
f 354/466/802 374/486/802 378/485/802
f 355/467/803 317/456/803 379/488/803
f 356/459/804 372/477/804 374/491/804
f 357/460/805 355/464/805 375/492/805
f 358/494/806 366/495/806 372/480/806
f 359/494/807 357/493/807 373/480/807
f 360/496/808 364/497/808 366/495/808
f 361/496/809 359/494/809 367/495/809
f 360/807/810 290/383/810 364/469/810
f 361/511/811 365/471/811 291/384/811
f 302/465/812 74/498/812 358/500/812
f 302/465/813 359/501/813 74/498/813
f 290/808/814 284/503/814 288/505/814
f 291/809/815 289/506/815 285/508/815
f 290/383/816 360/807/816 74/510/816
f 291/384/817 285/373/817 74/510/817
f 362/515/818 294/513/818 310/452/818
f 363/515/819 311/452/819 295/513/819
f 312/514/820 368/516/820 362/515/820
f 313/514/821 311/452/821 363/515/821
f 382/517/822 370/481/822 368/516/822
f 383/517/823 313/514/823 369/516/823
f 382/517/824 314/518/824 370/481/824
f 383/517/825 371/481/825 315/518/825
f 384/530/826 348/450/826 386/520/826
f 385/530/827 387/520/827 349/450/827
f 320/541/828 318/521/828 386/523/828
f 321/544/829 387/524/829 319/526/829
f 300/430/830 384/522/830 318/521/830
f 301/396/831 299/393/831 319/526/831
f 344/527/832 342/810/832 384/522/832
f 345/529/833 301/396/833 385/525/833
f 378/485/834 314/484/834 380/538/834
f 379/488/835 381/539/835 315/489/835
f 324/434/836 316/455/836 380/538/836
f 325/437/837 381/539/837 317/456/837
f 322/760/838 320/541/838 380/542/838
f 323/761/839 381/543/839 321/544/839
f 386/520/840 350/519/840 380/546/840
f 387/520/841 381/546/841 351/519/841
f 402/553/842 400/547/842 414/549/842
f 403/556/843 415/550/843 401/552/843
f 402/553/844 404/590/844 398/554/844
f 403/556/845 401/552/845 399/557/845
f 396/564/846 398/558/846 406/560/846
f 397/811/847 407/561/847 399/563/847
f 394/569/848 396/564/848 408/565/848
f 395/572/849 409/566/849 397/568/849
f 392/812/850 394/569/850 410/570/850
f 393/813/851 411/571/851 395/572/851
f 410/574/852 412/604/852 390/575/852
f 411/571/853 393/813/853 391/577/853
f 412/610/854 410/578/854 418/580/854
f 413/814/855 419/581/855 411/583/855
f 422/585/856 420/579/856 410/578/856
f 423/586/857 409/815/857 411/583/857
f 408/816/858 406/587/858 422/589/858
f 409/816/859 423/589/859 407/587/859
f 406/817/860 404/590/860 424/592/860
f 407/567/861 425/593/861 405/555/861
f 404/590/862 402/553/862 426/591/862
f 405/555/863 427/594/863 403/556/863
f 414/598/864 416/600/864 428/599/864
f 415/598/865 403/597/865 429/599/865
f 442/606/866 318/453/866 444/602/866
f 443/606/867 445/602/867 319/453/867
f 444/616/868 320/603/868 412/604/868
f 445/617/869 413/576/869 321/605/869
f 318/453/870 442/606/870 312/514/870
f 319/453/871 311/452/871 313/514/871
f 430/608/872 414/549/872 388/548/872
f 431/609/873 383/818/873 389/551/873
f 418/580/874 440/651/874 444/611/874
f 419/581/875 413/814/875 445/613/875
f 440/819/876 438/614/876 444/616/876
f 441/820/877 445/617/877 439/619/877
f 446/615/878 438/614/878 436/621/878
f 447/618/879 435/821/879 437/622/879
f 434/822/880 432/623/880 446/625/880
f 435/822/881 447/625/881 433/623/881
f 450/630/882 430/608/882 432/627/882
f 451/631/883 433/628/883 431/609/883
f 416/823/884 414/549/884 450/630/884
f 417/824/885 451/631/885 415/550/885
f 382/517/886 312/514/886 430/632/886
f 383/517/887 431/632/887 313/514/887
f 448/624/888 312/514/888 446/625/888
f 449/624/889 447/625/889 313/514/889
f 450/633/890 452/635/890 476/634/890
f 451/633/891 417/600/891 477/634/891
f 452/635/892 450/633/892 462/636/892
f 453/635/893 463/636/893 451/633/893
f 434/638/894 460/825/894 462/639/894
f 435/641/895 433/826/895 463/642/895
f 460/825/896 434/638/896 458/644/896
f 461/640/897 459/645/897 435/641/897
f 458/827/898 436/647/898 456/649/898
f 459/827/899 457/649/899 437/647/899
f 440/651/900 454/655/900 456/652/900
f 441/612/901 439/828/901 457/654/901
f 418/580/902 474/703/902 454/655/902
f 419/581/903 441/612/903 455/653/903
f 416/658/904 476/829/904 464/659/904
f 417/661/905 429/665/905 465/662/905
f 428/657/906 464/659/906 466/664/906
f 429/665/907 427/830/907 467/666/907
f 426/667/908 466/669/908 468/668/908
f 427/667/909 425/588/909 469/668/909
f 470/831/910 422/589/910 468/668/910
f 471/831/911 469/668/911 423/589/911
f 472/672/912 420/579/912 470/670/912
f 473/673/913 471/671/913 421/582/913
f 474/703/914 418/580/914 472/672/914
f 475/656/915 473/673/915 419/581/915
f 478/680/916 458/674/916 480/676/916
f 479/683/917 481/677/917 459/679/917
f 484/684/918 478/680/918 482/681/918
f 485/697/919 483/682/919 479/683/919
f 482/681/920 488/688/920 486/685/920
f 483/682/921 485/697/921 487/687/921
f 492/693/922 486/685/922 490/689/922
f 493/695/923 491/690/923 487/687/923
f 476/692/924 486/685/924 492/693/924
f 477/694/925 465/716/925 493/695/925
f 476/692/926 452/696/926 486/685/926
f 477/694/927 487/687/927 453/698/927
f 484/684/928 452/696/928 478/680/928
f 485/697/929 479/683/929 453/698/929
f 478/680/930 462/699/930 460/701/930
f 479/683/931 459/679/931 461/702/931
f 474/703/932 480/832/932 456/652/932
f 475/656/933 455/653/933 457/654/933
f 474/833/934 472/705/934 480/676/934
f 475/834/935 481/677/935 473/706/935
f 472/705/936 470/707/936 482/681/936
f 473/706/937 483/682/937 471/708/937
f 470/835/938 468/709/938 488/711/938
f 471/708/939 489/686/939 469/712/939
f 492/693/940 490/689/940 468/714/940
f 493/695/941 467/715/941 469/712/941
f 390/718/942 504/836/942 502/719/942
f 391/721/943 393/726/943 503/722/943
f 392/724/944 502/837/944 500/725/944
f 393/726/945 395/838/945 501/727/945
f 498/732/946 396/728/946 500/730/946
f 499/732/947 501/730/947 397/728/947
f 496/839/948 398/731/948 498/732/948
f 497/839/949 499/732/949 399/731/949
f 494/740/950 400/733/950 496/735/950
f 495/741/951 497/736/951 401/738/951
f 506/840/952 388/739/952 494/740/952
f 507/841/953 495/741/953 389/742/953
f 506/758/954 494/743/954 504/745/954
f 507/759/955 505/746/955 495/748/955
f 496/749/956 500/842/956 502/744/956
f 497/751/957 495/843/957 503/752/957
f 506/844/958 314/518/958 388/757/958
f 507/844/959 389/757/959 315/518/959
f 322/537/960 314/484/960 504/745/960
f 323/540/961 505/746/961 315/489/961
f 322/760/962 504/836/962 390/718/962
f 323/761/963 321/544/963 391/721/963
